NO,@ in URLs,Attachments,Css,Encoding,External Resources,Flash content,HTML content,Html Form,Html iFrame,IPs in URLs,Javascript,Phishy,URLs
0,0,0,0,0,0,0,1,0,0,1,0,1,2
1,0,0,0,-1,0,0,1,0,0,0,0,1,2
2,0,0,0,-1,0,0,1,0,0,0,0,1,2
3,0,0,0,1,0,0,1,0,0,1,0,1,3
4,0,0,0,1,0,0,1,0,0,1,0,1,3
5,0,0,0,0,0,0,1,0,0,0,0,1,3
6,0,0,0,-1,0,0,1,0,0,0,0,1,2
7,0,0,1,1,1,0,1,0,0,0,0,1,6
8,0,0,0,1,0,0,1,0,0,0,1,1,14
9,0,0,0,0,0,0,1,0,0,1,0,1,2
10,0,0,0,-1,0,0,1,0,0,0,0,1,13
11,0,0,0,-1,0,0,1,0,0,1,0,1,4
12,0,0,0,-1,0,0,1,0,0,0,0,1,15
13,0,0,1,-1,1,0,1,0,0,1,1,1,24
14,0,0,0,0,0,0,1,0,0,1,0,1,2
15,0,0,0,0,0,0,1,0,0,1,0,1,9
16,0,0,0,1,0,0,1,0,0,0,0,1,14
17,0,0,0,0,0,0,1,0,0,1,0,1,5
18,0,0,0,0,0,0,1,0,0,1,0,1,5
19,0,0,0,0,0,0,1,0,0,1,0,1,3
20,0,0,0,0,0,0,1,0,0,1,0,1,3
21,0,0,0,1,0,0,1,0,0,0,0,1,3
22,0,0,0,1,0,0,1,0,0,0,0,1,5
23,0,0,0,1,0,0,1,0,0,0,0,1,5
24,0,0,0,1,0,0,1,0,0,1,0,1,3
25,0,0,0,0,0,0,1,0,0,1,0,1,3
26,0,0,0,0,0,0,1,0,0,1,0,1,2
27,0,0,0,0,0,0,1,0,0,1,0,1,2
28,0,0,0,-1,0,0,1,0,0,0,0,1,3
29,0,0,0,0,0,0,1,0,0,1,0,1,4
30,0,0,0,-1,0,0,1,0,0,1,0,1,2
31,0,0,0,0,0,0,1,0,0,1,0,1,2
32,0,0,0,-1,0,0,1,0,0,1,0,1,22
33,0,0,0,-1,0,0,1,0,0,1,0,1,22
34,0,0,1,-1,0,0,1,0,0,1,0,1,3
35,0,0,1,1,1,0,1,0,0,0,0,1,6
36,0,0,0,0,0,0,1,0,0,1,0,1,2
37,0,0,0,0,0,0,1,0,0,1,0,1,2
38,0,0,0,-1,0,0,1,0,0,1,0,1,22
39,0,0,0,-1,0,0,1,0,0,0,0,1,1
40,0,0,0,0,0,0,1,0,0,1,0,1,2
41,0,1,0,0,0,0,1,0,0,0,0,1,0
42,0,1,0,0,0,0,1,0,0,0,0,1,0
43,0,1,0,0,0,0,1,0,0,0,0,1,0
44,0,0,0,-1,0,0,1,0,0,1,0,1,2
45,0,0,0,0,0,0,1,0,0,0,0,1,8
46,0,0,0,0,0,0,1,0,0,0,0,1,16
47,0,0,0,0,0,0,1,0,0,1,0,1,2
48,0,0,0,0,0,0,1,0,0,1,0,1,4
49,0,0,0,0,0,0,1,0,0,1,0,1,2
50,0,0,0,0,0,0,1,0,0,0,10,1,21
51,0,0,0,-1,0,0,1,0,0,1,0,1,22
52,0,0,0,0,0,0,1,0,0,0,0,1,1
53,0,0,1,0,0,0,1,1,0,1,4,1,23
54,0,0,0,0,0,0,1,0,0,1,0,1,5
55,0,0,0,1,0,0,1,0,0,1,0,1,4
56,0,0,0,0,0,0,1,0,0,1,0,1,9
57,0,0,0,-1,0,0,1,0,0,0,0,1,2
58,0,0,0,0,0,0,1,0,0,1,0,1,2
59,0,0,0,0,0,0,1,0,0,0,0,1,2
60,0,0,1,-2,0,0,1,0,0,0,0,1,3
61,0,0,1,-2,0,0,1,0,0,0,0,1,3
62,0,0,1,-2,0,0,1,0,0,0,0,1,3
63,0,0,1,-2,0,0,1,0,0,0,0,1,3
64,0,0,0,0,0,0,1,0,0,1,0,1,8
65,0,0,0,1,0,0,1,0,0,1,1,1,14
66,0,0,0,0,0,0,1,0,0,1,0,1,13
67,0,0,0,0,0,0,1,0,0,0,0,1,9
68,0,0,0,1,0,0,1,0,0,0,0,1,11
69,0,0,0,0,0,0,1,0,0,0,0,1,10
70,0,0,0,-2,0,0,1,0,0,1,0,1,4
71,0,0,0,0,0,0,1,0,0,1,0,1,2
72,0,0,0,0,0,0,1,0,0,1,0,1,12
73,0,0,0,0,0,0,1,0,0,1,0,1,12
74,0,0,0,0,0,0,1,0,0,1,0,1,4
75,0,0,0,-2,0,0,1,0,0,0,0,1,3
76,0,0,0,0,0,0,1,0,0,0,0,1,8
77,0,0,0,0,0,0,1,0,0,0,0,1,3
78,0,0,0,0,0,0,1,0,0,0,0,1,24
79,0,0,0,-1,0,0,1,0,0,1,0,1,13
80,0,0,0,-1,0,0,1,0,0,1,0,1,13
81,0,0,1,-1,0,0,1,1,0,0,4,1,13
82,0,0,0,0,0,0,1,0,0,1,0,1,5
83,0,0,0,1,0,0,1,0,0,0,0,1,12
84,0,0,0,0,0,0,1,0,0,0,0,1,6
85,0,0,0,0,0,0,1,0,0,0,0,1,8
86,0,0,0,1,0,0,1,0,0,0,0,1,12
87,0,0,0,0,0,0,1,0,0,1,0,1,6
88,0,0,0,0,0,0,1,0,0,1,0,1,6
89,0,0,0,0,0,0,1,0,0,1,0,1,6
90,0,0,0,0,0,0,1,0,0,1,0,1,6
91,0,0,0,0,0,0,1,0,0,1,0,1,6
92,0,0,0,0,0,0,1,0,0,1,0,1,6
93,0,0,0,0,0,0,1,0,0,1,0,1,6
94,0,0,0,0,0,0,1,0,0,1,0,1,6
95,0,0,0,0,0,0,1,0,0,1,0,1,6
96,0,0,0,0,0,0,1,0,0,1,0,1,6
97,0,0,0,0,0,0,1,0,0,1,0,1,6
98,0,0,0,0,0,0,1,0,0,1,0,1,6
99,0,0,0,0,0,0,1,0,0,1,0,1,6
100,0,0,0,0,0,0,1,0,0,1,0,1,6
101,0,0,0,0,0,0,1,0,0,1,0,1,6
102,0,0,0,0,0,0,1,0,0,1,0,1,6
103,0,0,0,0,0,0,1,0,0,1,0,1,6
104,0,0,0,0,0,0,1,1,0,1,0,1,3
105,0,0,0,-1,0,0,1,0,0,0,0,1,2
106,0,0,0,0,0,0,1,0,0,1,0,1,6
107,0,0,0,0,0,0,1,0,0,1,0,1,6
108,0,0,0,0,0,0,1,0,0,1,0,1,6
109,0,0,0,0,0,0,1,0,0,1,0,1,14
110,0,0,0,0,0,0,1,0,0,0,0,1,24
111,0,0,0,0,0,0,1,0,0,0,0,1,5
112,0,0,0,1,0,0,1,0,0,0,0,1,7
113,0,0,0,0,0,0,1,0,0,1,0,1,13
114,0,0,0,0,0,0,1,0,0,1,0,1,13
115,0,0,0,0,0,0,1,0,0,1,0,1,13
116,0,0,0,0,0,0,1,0,0,0,0,1,5
117,0,0,0,0,0,0,0,0,0,0,0,1,0
118,0,0,0,0,0,0,1,0,0,0,0,1,6
119,0,0,0,0,0,0,1,0,0,0,0,1,6
120,0,0,0,0,0,0,1,0,0,0,0,1,3
121,0,0,4,-2,0,0,1,1,0,0,1,1,12
122,0,0,4,-2,0,0,1,1,0,0,1,1,12
123,0,0,0,0,0,0,1,0,0,0,0,1,1
124,0,0,0,1,0,0,1,0,0,1,0,1,5
125,0,0,0,0,0,0,0,0,0,1,0,1,1
126,0,0,0,0,0,0,1,0,0,0,0,1,1
127,0,0,0,1,0,0,1,0,0,0,0,1,12
128,0,0,0,0,0,0,1,0,0,1,0,1,2
129,0,0,0,0,0,0,1,0,0,1,0,1,2
130,0,0,0,1,0,0,1,0,0,0,0,1,7
131,0,0,0,-2,0,0,1,0,0,0,0,1,8
132,0,0,0,0,0,0,1,0,0,1,0,1,6
133,0,0,0,0,0,0,0,0,0,1,0,1,1
134,0,0,0,0,0,0,1,0,0,0,3,1,13
135,0,0,0,0,0,0,1,0,0,0,0,1,20
136,0,0,0,0,0,0,1,0,0,0,0,1,3
137,0,0,0,1,0,0,1,0,0,1,0,1,2
138,0,0,0,1,0,0,1,0,0,1,0,1,2
139,0,0,0,0,0,0,1,0,0,1,0,1,4
140,0,0,0,0,0,0,1,0,0,1,0,1,2
141,0,0,0,0,0,0,1,0,0,1,0,1,2
142,0,0,0,0,0,0,1,0,0,1,0,1,6
143,0,0,0,1,0,0,1,1,0,1,0,1,14
144,0,0,0,1,0,0,1,0,0,0,0,1,2
145,0,0,0,0,0,0,1,0,0,1,0,1,23
146,0,0,0,1,0,0,1,0,0,0,0,1,3
147,0,0,0,0,0,0,1,0,0,1,0,1,2
148,0,0,0,0,0,0,1,0,0,1,0,1,2
149,0,0,0,-1,0,0,1,0,0,1,0,1,19
150,0,0,0,0,0,0,1,0,0,1,0,1,2
151,0,0,0,1,0,0,1,0,0,0,0,1,2
152,0,0,0,0,0,0,1,0,0,1,0,1,6
153,0,0,0,0,0,0,1,0,0,0,0,1,34
154,0,0,0,-1,0,0,0,0,0,0,0,1,2
155,0,2,0,0,0,0,1,0,0,0,0,1,5
156,0,2,0,0,0,0,1,0,0,0,0,1,5
157,0,0,0,0,0,0,1,0,0,0,0,1,16
158,0,0,0,1,0,0,1,0,0,0,0,1,1
159,0,0,0,-1,0,0,1,0,0,0,0,1,5
160,0,0,0,0,0,0,1,0,0,0,0,1,3
161,0,0,0,1,0,0,1,0,0,0,0,1,3
162,0,0,0,0,0,0,1,0,0,0,0,1,3
163,0,0,0,-1,0,0,1,0,0,1,0,1,3
164,0,0,0,0,0,0,1,0,0,1,0,1,2
165,0,0,0,0,0,0,1,0,0,1,0,1,2
166,0,0,0,0,0,0,1,0,0,0,0,1,6
167,0,0,0,1,0,0,1,0,0,0,0,1,4
168,0,0,0,0,0,0,1,0,0,0,0,1,3
169,0,0,0,0,0,0,1,0,0,1,0,1,2
170,0,0,0,0,0,0,1,0,0,1,0,1,2
171,0,0,0,0,0,0,1,0,0,0,0,1,8
172,0,0,0,0,0,0,1,0,0,0,0,1,1
173,0,0,0,0,0,0,1,0,0,0,0,1,13
174,0,0,0,0,0,0,1,0,0,0,0,1,5
175,0,0,0,0,0,0,1,0,0,1,0,1,14
176,0,0,0,1,0,0,0,0,0,0,0,1,1
177,0,0,0,1,0,0,0,0,0,0,0,1,1
178,0,0,0,0,0,0,1,0,0,0,0,1,2
179,0,0,0,0,0,0,1,0,0,0,0,1,2
180,0,0,0,0,0,0,1,0,0,0,0,1,2
181,0,0,0,0,0,0,1,0,0,1,0,1,2
182,0,2,0,0,0,0,1,0,0,0,0,1,1
183,0,2,0,0,0,0,1,0,0,0,0,1,1
184,0,0,0,1,0,0,1,0,0,0,0,1,12
185,0,0,0,0,0,0,1,0,0,0,0,1,6
186,0,0,0,1,0,0,1,0,0,0,0,1,8
187,0,0,0,0,0,0,1,0,0,0,0,1,4
188,0,0,0,0,0,0,1,0,0,0,0,1,3
189,0,0,0,1,0,0,1,0,0,0,0,1,12
190,0,0,0,0,0,0,1,0,0,0,0,1,3
191,0,0,0,0,0,0,1,0,0,1,0,1,4
192,0,0,0,0,0,0,1,0,0,1,0,1,24
193,0,0,0,1,0,0,1,0,0,1,0,1,19
194,0,0,0,0,0,0,1,0,0,1,0,1,16
195,0,0,0,1,0,0,1,0,0,0,0,1,4
196,0,0,0,0,0,0,1,0,0,0,0,1,3
197,0,0,0,0,0,0,1,0,0,0,0,1,4
198,0,0,0,0,0,0,1,0,0,1,0,1,2
199,0,0,0,0,0,0,1,0,0,0,0,1,3
200,0,0,0,1,0,0,1,0,0,0,0,1,4
201,0,0,2,1,0,0,1,0,0,1,0,1,4
202,0,0,0,0,0,0,1,0,0,1,0,1,3
203,0,0,0,1,0,0,1,0,0,0,0,1,7
204,0,0,0,0,0,0,1,1,0,1,0,1,24
205,0,0,0,0,0,0,1,1,0,1,0,1,24
206,0,0,0,1,0,0,1,0,0,0,0,1,6
207,0,0,0,1,0,0,1,0,0,0,0,1,18
208,0,0,0,0,0,0,1,0,0,1,0,1,13
209,0,0,0,0,0,0,1,0,0,1,0,1,11
210,0,0,0,0,0,0,1,0,0,1,0,1,4
211,0,0,0,1,0,0,1,0,0,0,0,1,12
212,0,0,0,0,0,0,1,0,0,1,0,1,2
213,0,0,0,-1,0,0,1,0,0,1,0,1,13
214,0,0,0,-1,0,0,1,0,0,0,0,1,45
215,0,0,0,1,0,0,1,0,0,0,0,1,12
216,0,0,0,0,0,0,1,0,0,1,0,1,2
217,0,0,0,0,0,0,1,0,0,1,0,1,39
218,0,0,0,0,0,0,1,0,0,1,0,1,39
219,0,0,0,1,0,0,1,0,0,0,0,1,8
220,0,0,0,0,0,0,1,0,0,1,0,1,2
221,0,0,0,0,0,0,1,0,0,0,0,1,5
222,0,0,0,0,0,0,1,0,0,1,0,1,14
223,0,0,0,1,0,0,1,0,0,0,0,1,33
224,0,0,0,0,0,0,1,0,0,1,0,1,3
225,0,0,0,0,0,0,1,0,0,0,0,1,2
226,0,0,3,0,2,0,1,0,0,0,2,1,19
227,0,0,0,0,0,0,1,0,0,1,0,1,3
228,0,0,0,-1,0,0,1,0,0,0,0,1,2
229,0,0,0,0,0,0,1,1,0,1,0,1,4
230,0,0,0,0,0,0,1,0,0,1,0,1,59
231,0,0,3,0,2,0,1,0,0,1,2,1,19
232,0,0,0,0,0,0,1,0,0,1,0,1,4
233,0,0,0,0,0,0,1,0,0,1,0,1,2
234,0,0,0,0,0,0,1,0,0,1,0,1,5
235,0,0,0,0,0,0,1,0,0,0,0,1,5
236,0,0,0,0,0,0,1,0,0,1,0,1,14
237,0,0,0,1,0,0,1,0,0,0,0,1,12
238,0,0,0,-1,0,0,1,0,0,1,0,1,2
239,0,0,0,0,0,0,1,0,0,0,0,1,7
240,0,0,0,0,0,0,1,0,0,0,0,1,7
241,0,0,0,0,0,0,1,0,0,0,0,1,2
242,0,0,0,1,0,0,1,0,0,0,0,1,6
243,0,0,0,1,0,0,1,0,0,0,0,1,6
244,0,0,0,0,0,0,1,0,0,0,0,1,7
245,0,0,0,1,0,0,1,0,0,0,0,1,7
246,0,0,0,1,0,0,1,0,0,0,0,1,4
247,0,0,0,0,0,0,1,1,0,1,0,1,6
248,0,0,0,1,0,0,1,0,0,0,0,1,3
249,0,0,0,-1,0,0,1,0,0,0,0,1,11
250,0,0,0,-1,0,0,1,1,0,1,0,1,6
251,0,0,0,-1,0,0,1,0,0,0,0,1,34
252,0,0,0,-1,0,0,1,0,0,1,0,1,7
253,0,0,0,-1,0,0,1,0,0,1,0,1,6
254,0,0,0,0,0,0,1,0,0,0,0,1,2
255,0,0,0,0,0,0,1,0,0,1,0,1,2
256,1,0,0,-1,0,0,1,0,0,0,2,1,24
257,0,0,0,0,0,0,1,0,0,1,0,1,2
258,0,0,0,0,0,0,1,0,0,1,0,1,2
259,0,0,0,-1,0,0,1,0,0,1,0,1,2
260,0,0,0,-1,0,0,1,0,0,0,0,1,2
261,0,0,0,0,0,0,1,0,0,1,0,1,2
262,0,0,0,-1,0,0,1,0,0,1,0,1,12
263,0,0,0,-1,0,0,1,0,0,0,0,1,5
264,0,0,0,-1,0,0,1,0,0,0,0,1,5
265,0,0,0,0,0,0,1,0,0,1,0,1,3
266,0,0,0,0,0,0,1,0,0,1,0,1,16
267,0,0,0,-1,0,0,1,0,0,0,0,1,45
268,0,0,0,-1,0,0,1,0,0,0,0,1,45
269,0,0,0,-1,0,0,1,0,0,0,0,1,45
270,0,0,0,0,0,0,1,0,0,1,0,1,2
271,0,0,0,-1,0,0,1,0,0,0,0,1,45
272,0,0,0,-1,0,0,1,0,0,0,0,1,4
273,0,0,0,-1,0,0,1,0,0,0,0,1,4
274,0,0,0,-1,0,0,1,0,0,0,0,1,2
275,0,0,0,-1,0,0,1,0,0,1,0,1,6
276,0,0,0,-1,0,0,1,0,0,1,0,1,6
277,0,0,0,-1,0,0,1,0,0,1,0,1,1
278,0,0,0,-1,0,0,1,0,0,1,0,1,45
279,0,0,0,0,0,0,1,0,0,1,0,1,2
280,1,0,0,-1,0,0,1,0,0,0,0,1,14
281,0,0,0,-1,0,0,1,0,0,0,0,1,3
282,0,0,0,0,0,0,1,0,0,0,1,1,15
283,0,0,0,-1,0,0,1,0,0,1,0,1,5
284,0,0,0,0,0,0,1,0,0,1,0,1,2
285,0,0,0,-1,0,0,1,0,0,1,0,1,34
286,0,1,0,0,0,0,1,0,0,0,0,1,3
287,0,0,0,-1,0,0,1,0,0,0,0,1,44
288,0,0,0,-1,0,0,1,0,0,0,0,1,2
289,0,0,0,-1,0,0,1,0,0,1,0,1,1
290,0,0,0,-1,0,0,1,0,0,0,0,1,45
291,0,0,0,-1,0,0,1,0,0,0,0,1,3
292,0,0,0,-1,0,0,0,0,0,0,0,1,0
293,0,0,0,0,0,0,1,0,0,1,0,1,2
294,0,0,0,-1,0,0,1,0,0,1,0,1,34
295,0,0,0,-1,0,0,1,0,0,1,0,1,45
296,0,0,0,-1,0,0,1,0,0,1,0,1,2
297,0,0,5,-1,1,0,1,0,0,0,1,1,5
298,0,0,0,0,0,0,1,0,0,1,0,1,6
299,0,0,0,-1,0,0,1,0,0,1,1,1,14
300,0,0,0,-1,0,0,1,0,0,1,1,1,14
301,0,0,0,-1,0,0,1,0,0,1,0,1,44
302,0,0,0,-1,0,0,1,0,0,1,0,1,6
303,0,0,0,-1,0,0,0,0,0,0,0,1,0
304,0,0,0,-1,0,0,0,0,0,0,0,1,0
305,0,0,0,-1,0,0,1,0,0,0,0,1,3
306,0,0,0,-1,0,0,1,0,0,1,0,1,14
307,0,0,0,-1,0,0,1,0,0,0,0,1,3
308,0,0,5,-1,1,0,1,0,0,0,1,1,5
309,0,0,0,-1,0,0,1,0,0,1,0,1,2
310,0,0,0,0,0,0,0,0,0,0,0,1,1
311,0,0,0,-1,0,0,1,0,0,0,0,1,3
312,0,0,0,-1,0,0,1,0,0,0,0,1,10
313,0,0,0,-1,0,0,1,0,0,1,0,1,5
314,0,0,0,-1,0,0,1,0,0,0,0,1,7
315,0,0,0,-1,0,0,1,0,0,1,0,1,5
316,0,0,1,-1,0,0,1,0,0,0,0,1,3
317,0,0,0,-1,0,0,1,0,0,0,0,1,3
318,0,0,0,-1,0,0,1,0,0,1,0,1,60
319,0,0,0,-1,0,0,1,0,0,0,0,1,6
320,0,2,0,0,0,0,1,0,0,0,0,1,2
321,0,1,0,0,0,0,1,0,0,0,0,1,2
322,0,1,0,0,0,0,1,0,0,0,0,1,2
323,0,0,0,0,0,0,1,0,0,0,3,1,9
324,0,0,0,0,0,0,1,0,0,0,3,1,7
325,0,0,0,0,0,0,1,0,0,0,3,1,7
326,0,0,0,0,0,0,1,0,0,0,0,1,1
327,0,0,0,0,0,0,1,0,0,0,0,1,1
328,0,0,0,0,0,0,1,0,0,0,0,1,1
329,0,0,0,0,0,0,1,0,0,0,0,1,1
330,0,0,0,0,0,0,1,0,0,0,0,1,1
331,0,0,0,0,0,0,1,0,0,0,0,1,1
332,0,0,0,0,0,0,1,0,0,0,0,1,1
333,0,0,0,0,0,0,1,0,0,0,0,1,1
334,0,0,0,0,0,0,1,0,0,0,0,1,1
335,0,0,0,0,0,0,1,0,0,0,0,1,1
336,0,0,0,0,0,0,1,0,0,0,0,1,1
337,0,0,0,0,0,0,1,0,0,0,0,1,1
338,0,0,0,0,0,0,1,0,0,0,0,1,1
339,0,0,0,0,0,0,1,0,0,0,0,1,1
340,0,0,0,0,0,0,1,0,0,0,0,1,1
341,0,0,0,0,0,0,1,0,0,0,0,1,1
342,0,0,0,0,0,0,1,0,0,0,0,1,1
343,0,0,0,0,0,0,1,0,0,0,0,1,1
344,0,0,0,0,0,0,1,0,0,0,0,1,1
345,0,0,0,0,0,0,1,0,0,0,0,1,1
346,0,0,0,0,0,0,1,0,0,0,0,1,1
347,0,0,0,0,0,0,1,0,0,0,0,1,1
348,0,0,0,0,0,0,1,0,0,0,0,1,1
349,0,0,0,0,0,0,1,0,0,0,0,1,1
350,0,0,0,0,0,0,1,0,0,0,0,1,1
351,0,0,0,0,0,0,1,0,0,0,0,1,1
352,0,0,0,0,0,0,1,0,0,0,0,1,1
353,0,0,0,1,0,0,1,0,0,0,0,1,4
354,0,0,0,0,0,0,1,0,0,0,0,1,1
355,0,0,0,0,0,0,1,0,0,0,0,1,1
356,0,0,0,0,0,0,1,0,0,0,0,1,1
357,0,0,0,0,0,0,1,0,0,0,0,1,1
358,0,0,0,0,0,0,1,0,0,0,0,1,1
359,0,0,0,0,0,0,1,0,0,0,0,1,1
360,0,0,0,0,0,0,1,0,0,0,0,1,1
361,0,0,0,0,0,0,1,0,0,0,0,1,1
362,0,0,0,0,0,0,1,0,0,0,0,1,1
363,0,0,0,0,0,0,1,0,0,0,0,1,1
364,0,0,0,0,0,0,1,0,0,0,0,1,1
365,0,0,0,-1,0,0,1,0,0,1,0,1,45
366,0,0,0,0,0,0,1,0,0,0,0,1,1
367,0,0,0,0,0,0,1,0,0,0,0,1,1
368,0,0,0,0,0,0,1,0,0,0,0,1,1
369,0,0,0,0,0,0,1,0,0,0,0,1,1
370,0,0,0,0,0,0,1,0,0,0,0,1,1
371,0,0,0,0,0,0,1,0,0,0,0,1,1
372,0,0,0,0,0,0,1,0,0,0,0,1,1
373,0,0,0,0,0,0,1,0,0,0,0,1,1
374,0,0,0,0,0,0,1,0,0,0,0,1,1
375,0,0,0,0,0,0,1,0,0,0,0,1,1
376,0,0,0,0,0,0,1,0,0,0,0,1,1
377,0,0,0,0,0,0,1,0,0,0,0,1,1
378,0,0,0,0,0,0,1,0,0,0,0,1,1
379,0,0,0,-1,0,0,1,0,0,1,0,1,2
380,0,0,0,0,0,0,1,0,0,0,0,1,1
381,0,0,0,-1,0,0,1,0,0,1,0,1,44
382,0,0,0,0,0,0,1,0,0,0,0,1,1
383,0,0,0,0,0,0,1,0,0,0,0,1,1
384,0,0,0,0,0,0,1,0,0,0,0,1,1
385,0,0,0,0,0,0,1,0,0,0,0,1,1
386,0,0,0,0,0,0,1,0,0,0,0,1,1
387,0,0,0,0,0,0,1,0,0,0,0,1,1
388,0,0,0,0,0,0,1,0,0,0,0,1,1
389,0,0,0,0,0,0,1,0,0,0,0,1,1
390,0,0,0,0,0,0,1,0,0,0,0,1,1
391,0,0,0,0,0,0,1,0,0,0,0,1,1
392,0,0,0,0,0,0,1,0,0,0,0,1,1
393,0,0,0,0,0,0,1,0,0,0,0,1,1
394,0,0,0,0,0,0,1,0,0,0,0,1,1
395,0,0,0,0,0,0,1,0,0,0,0,1,1
396,0,0,0,0,0,0,1,0,0,0,0,1,1
397,0,0,0,0,0,0,1,0,0,0,0,1,1
398,0,0,0,0,0,0,1,0,0,0,0,1,1
399,0,0,0,0,0,0,1,0,0,0,0,1,1
400,0,0,0,0,0,0,1,0,0,0,0,1,1
401,0,0,0,0,0,0,1,0,0,0,0,1,1
402,0,0,0,0,0,0,1,0,0,0,0,1,1
403,0,0,0,0,0,0,1,0,0,0,0,1,1
404,0,0,0,0,0,0,1,0,0,0,0,1,1
405,0,0,0,0,0,0,1,0,0,0,0,1,1
406,0,0,0,0,0,0,1,0,0,0,0,1,1
407,0,0,0,0,0,0,1,0,0,0,0,1,1
408,0,0,0,0,0,0,1,0,0,0,0,1,1
409,0,0,0,0,0,0,1,0,0,0,0,1,1
410,0,0,0,0,0,0,1,0,0,0,0,1,1
411,0,0,0,0,0,0,1,0,0,0,0,1,1
412,0,0,0,0,0,0,1,0,0,0,0,1,1
413,0,0,0,0,0,0,1,0,0,0,0,1,1
414,0,0,0,0,0,0,1,0,0,0,0,1,1
415,0,0,0,0,0,0,1,0,0,0,0,1,1
416,0,0,0,0,0,0,1,0,0,0,0,1,1
417,0,0,0,0,0,0,1,0,0,0,0,1,1
418,0,0,0,0,0,0,1,0,0,0,0,1,1
419,0,0,0,0,0,0,1,0,0,0,0,1,1
420,0,0,0,0,0,0,1,0,0,0,0,1,1
421,0,0,0,0,0,0,1,0,0,0,0,1,1
422,0,0,0,0,0,0,1,0,0,0,0,1,1
423,0,0,0,0,0,0,1,0,0,0,0,1,1
424,0,0,0,0,0,0,1,0,0,0,0,1,1
425,0,0,0,0,0,0,1,0,0,0,0,1,1
426,0,0,0,0,0,0,1,0,0,0,0,1,1
427,0,0,0,-1,0,0,1,0,0,1,0,1,3
428,0,0,0,0,0,0,1,0,0,0,0,1,16
429,0,0,0,0,0,0,1,0,0,1,3,1,6
430,0,0,0,0,0,0,1,0,0,0,0,1,1
431,0,0,0,0,0,0,1,0,0,0,0,1,1
432,0,0,0,0,0,0,1,0,0,1,0,1,2
433,0,0,0,0,0,0,1,0,0,0,0,1,1
434,0,0,0,0,0,0,1,0,0,0,0,1,1
435,0,0,3,0,3,0,1,0,0,0,3,1,21
436,0,0,0,0,0,0,1,0,0,0,0,1,1
437,0,0,0,0,0,0,1,0,0,0,0,1,1
438,0,0,0,0,0,0,1,0,0,0,0,1,1
439,0,0,0,0,0,0,1,0,0,0,0,1,1
440,0,0,0,0,0,0,1,0,0,0,0,1,1
441,0,0,0,0,0,0,1,0,0,0,0,1,1
442,0,0,0,0,0,0,1,0,0,0,0,1,1
443,0,0,0,0,0,0,1,0,0,0,0,1,1
444,0,0,0,0,0,0,1,0,0,0,0,1,1
445,0,0,0,0,0,0,1,0,0,0,0,1,1
446,0,0,0,0,0,0,1,0,0,0,0,1,1
447,0,0,0,0,0,0,1,0,0,0,0,1,1
448,0,0,0,0,0,0,1,0,0,0,0,1,1
449,0,0,0,0,0,0,1,0,0,0,0,1,1
450,0,0,0,0,0,0,1,0,0,0,0,1,1
451,0,0,0,0,0,0,1,0,0,0,0,1,1
452,0,0,0,0,0,0,1,0,0,0,0,1,1
453,0,1,0,0,0,0,1,0,0,0,0,1,1
454,0,0,0,0,0,0,1,0,0,0,0,1,1
455,0,0,0,0,0,0,1,0,0,0,0,1,1
456,0,0,0,0,0,0,1,0,0,0,0,1,1
457,0,0,0,0,0,0,1,0,0,0,0,1,1
458,0,0,0,0,0,0,1,0,0,0,0,1,1
459,0,0,0,0,0,0,1,0,0,0,0,1,1
460,0,0,0,0,0,0,1,0,0,0,0,1,1
461,0,0,0,0,0,0,1,0,0,0,0,1,1
462,0,0,0,0,0,0,1,0,0,0,0,1,1
463,0,0,0,0,0,0,1,0,0,0,0,1,1
464,0,0,0,0,0,0,1,0,0,0,0,1,1
465,0,0,0,0,0,0,1,0,0,0,0,1,1
466,0,0,0,0,0,0,1,0,0,0,0,1,1
467,0,0,0,-1,0,0,1,0,0,1,0,1,16
468,0,0,0,0,0,0,1,0,0,0,0,1,1
469,0,0,0,0,0,0,1,0,0,0,0,1,1
470,0,0,0,0,0,0,1,0,0,0,0,1,1
471,0,0,0,0,0,0,1,0,0,0,0,1,1
472,0,0,0,0,0,0,1,0,0,0,0,1,1
473,0,0,0,0,0,0,1,0,0,0,0,1,2
474,0,0,0,0,0,0,1,0,0,0,0,1,1
475,0,0,0,0,0,0,1,0,0,0,0,1,3
476,0,0,0,0,0,0,1,0,0,0,0,1,1
477,0,0,0,0,0,0,1,0,0,0,0,1,1
478,0,0,0,0,0,0,1,0,0,0,0,1,1
479,0,0,0,0,0,0,1,0,0,0,0,1,2
480,0,0,0,0,0,0,1,0,0,0,0,1,2
481,0,0,0,0,0,0,1,0,0,0,0,1,2
482,0,0,0,0,0,0,1,0,0,0,0,1,2
483,0,0,0,0,0,0,1,0,0,0,0,1,2
484,0,0,0,0,0,0,1,0,0,0,0,1,2
485,0,0,0,0,0,0,1,0,0,0,0,1,1
486,0,0,0,0,0,0,1,0,0,0,0,1,2
487,0,0,0,0,0,0,1,0,0,0,0,1,2
488,0,0,0,0,0,0,1,0,0,0,0,1,2
489,0,0,0,-1,0,0,1,0,0,0,0,1,3
490,0,0,0,0,0,0,1,0,0,0,0,1,2
491,0,0,0,0,0,0,1,0,0,0,0,1,2
492,0,0,0,0,0,0,1,0,0,0,0,1,1
493,0,0,0,0,0,0,1,0,0,0,0,1,2
494,0,0,0,0,0,0,1,0,0,0,0,1,2
495,0,0,0,0,0,0,1,0,0,0,0,1,1
496,0,0,0,0,0,0,1,0,0,0,0,1,0
497,0,0,0,0,0,0,1,0,0,0,0,1,1
498,0,0,0,0,0,0,1,0,0,0,0,1,1
499,0,0,0,0,0,0,1,0,0,0,0,1,1
500,0,0,0,0,0,0,1,0,0,0,0,1,2
501,0,0,0,0,0,0,1,0,0,0,0,1,1
502,0,0,0,0,0,0,1,0,0,0,0,1,1
503,0,0,0,0,0,0,1,0,0,0,0,1,1
504,0,0,0,0,0,0,1,0,0,0,0,1,2
505,0,0,0,0,0,0,1,0,0,0,0,1,2
506,0,0,0,0,0,0,1,0,0,0,0,1,2
507,0,0,0,0,0,0,1,0,0,0,0,1,2
508,0,0,0,0,0,0,1,0,0,0,0,1,2
509,0,0,0,0,0,0,1,0,0,0,0,1,2
510,0,0,0,0,0,0,1,0,0,0,0,1,2
511,0,0,0,0,0,0,1,0,0,0,0,1,2
512,0,0,0,0,0,0,1,0,0,0,0,1,2
513,0,0,0,0,0,0,1,0,0,0,0,1,2
514,0,0,0,0,0,0,1,0,0,0,0,1,2
515,0,0,0,-1,0,0,1,0,0,1,0,1,2
516,0,0,0,0,0,0,1,0,0,0,0,1,2
517,0,0,0,0,0,0,1,0,0,0,0,1,2
518,0,0,0,0,0,0,1,0,0,0,0,1,25
519,0,0,0,0,0,0,1,0,0,0,0,1,2
520,0,0,0,0,0,0,1,0,0,0,0,1,2
521,0,0,0,0,0,0,1,0,0,0,0,1,2
522,0,0,0,0,0,0,1,0,0,0,0,1,2
523,0,0,0,0,0,0,1,0,0,0,0,1,2
524,0,0,0,0,0,0,1,0,0,0,0,1,2
525,0,0,0,0,0,0,1,0,0,0,0,1,2
526,0,0,0,0,0,0,1,0,0,0,0,1,2
527,0,0,0,0,0,0,1,0,0,0,0,1,2
528,0,0,0,0,0,0,1,0,0,0,0,1,2
529,0,0,0,0,0,0,1,0,0,0,0,1,2
530,0,0,0,0,0,0,1,0,0,0,0,1,2
531,0,0,0,0,0,0,1,0,0,0,0,1,2
532,0,0,0,0,0,0,1,0,0,0,0,1,2
533,0,0,0,0,0,0,1,0,0,0,0,1,2
534,0,0,0,0,0,0,1,0,0,0,0,1,2
535,0,0,0,0,0,0,1,0,0,0,0,1,2
536,0,0,0,0,0,0,1,0,0,0,0,1,1
537,0,0,0,0,0,0,1,0,0,0,0,1,1
538,0,0,0,0,0,0,1,0,0,0,0,1,2
539,0,0,0,0,0,0,1,0,0,0,0,1,2
540,0,0,0,0,0,0,1,0,0,0,0,1,2
541,0,0,0,0,0,0,1,0,0,0,0,1,2
542,0,0,0,0,0,0,1,0,0,0,0,1,2
543,0,0,0,0,0,0,1,0,0,0,0,1,2
544,0,0,0,0,0,0,1,0,0,0,0,1,2
545,0,0,0,0,0,0,1,0,0,0,0,1,2
546,0,0,0,0,0,0,1,0,0,0,0,1,2
547,0,0,0,0,0,0,1,0,0,0,0,1,2
548,0,0,0,0,0,0,1,0,0,0,0,1,2
549,0,0,0,0,0,0,1,0,0,0,0,1,2
550,0,0,0,0,0,0,1,0,0,0,0,1,2
551,0,0,0,0,0,0,1,0,0,0,0,1,2
552,0,0,0,-1,0,0,1,0,0,0,0,1,5
553,0,0,0,0,0,0,1,0,0,0,0,1,2
554,0,0,0,0,0,0,1,0,0,0,0,1,2
555,0,0,0,0,0,0,1,0,0,0,0,1,2
556,0,0,0,0,0,0,1,0,0,0,0,1,2
557,0,0,0,0,0,0,1,0,0,0,0,1,2
558,0,0,0,0,0,0,1,0,0,0,0,1,2
559,0,0,0,0,0,0,1,0,0,0,0,1,2
560,0,0,0,0,0,0,1,0,0,0,0,1,2
561,0,0,0,0,0,0,1,0,0,0,0,1,3
562,0,0,0,0,0,0,1,0,0,0,0,1,2
563,0,0,0,0,0,0,1,0,0,0,0,1,2
564,0,0,0,0,0,0,1,0,0,0,0,1,2
565,0,0,0,0,0,0,1,0,0,0,0,1,2
566,0,0,0,0,0,0,1,0,0,0,0,1,2
567,0,0,0,0,0,0,1,0,0,0,0,1,2
568,0,0,0,0,0,0,1,0,0,0,0,1,2
569,0,0,0,0,0,0,1,0,0,0,0,1,2
570,0,0,0,0,0,0,1,0,0,0,0,1,2
571,0,0,0,0,0,0,1,0,0,0,0,1,2
572,0,0,0,0,0,0,1,0,0,0,0,1,2
573,0,0,0,0,0,0,1,0,0,0,0,1,2
574,0,0,0,0,0,0,1,0,0,0,0,1,2
575,0,0,0,0,0,0,1,0,0,0,0,1,2
576,0,0,0,0,0,0,1,0,0,0,0,1,2
577,0,0,0,0,0,0,1,0,0,0,0,1,2
578,0,0,0,0,0,0,1,0,0,0,0,1,2
579,0,0,0,0,0,0,1,0,0,0,0,1,2
580,0,0,0,0,0,0,1,0,0,0,0,1,2
581,0,0,0,0,0,0,1,0,0,0,0,1,2
582,0,0,0,0,0,0,1,0,0,0,0,1,2
583,0,0,0,0,0,0,1,0,0,0,0,1,2
584,0,0,0,0,0,0,1,0,0,0,0,1,2
585,0,0,0,0,0,0,1,0,0,0,0,1,2
586,0,0,0,0,0,0,1,0,0,0,0,1,2
587,0,0,0,0,0,0,1,0,0,0,0,1,2
588,0,0,0,0,0,0,1,0,0,0,0,1,2
589,0,0,0,0,0,0,1,0,0,0,0,1,2
590,0,0,0,0,0,0,1,0,0,0,0,1,2
591,0,0,0,0,0,0,1,0,0,0,0,1,2
592,0,0,0,0,0,0,1,0,0,0,0,1,2
593,0,0,0,0,0,0,1,0,0,0,0,1,2
594,0,0,0,0,0,0,1,0,0,0,0,1,2
595,0,0,0,0,0,0,1,0,0,0,0,1,2
596,0,0,0,0,0,0,1,0,0,0,0,1,2
597,0,0,0,0,0,0,1,0,0,0,0,1,2
598,0,0,0,0,0,0,1,0,0,0,0,1,2
599,0,0,0,0,0,0,1,0,0,0,0,1,2
600,0,0,0,0,0,0,1,0,0,0,0,1,2
601,0,0,0,0,0,0,1,0,0,0,0,1,2
602,0,0,0,0,0,0,1,0,0,0,0,1,2
603,0,0,0,0,0,0,1,0,0,0,0,1,2
604,0,0,0,0,0,0,1,0,0,0,0,1,2
605,0,0,0,0,0,0,1,0,0,0,0,1,2
606,0,0,0,0,0,0,1,0,0,0,0,1,2
607,0,0,0,0,0,0,1,0,0,0,0,1,2
608,0,0,0,0,0,0,1,0,0,0,0,1,2
609,0,0,0,0,0,0,1,0,0,0,0,1,2
610,0,0,0,0,0,0,1,0,0,0,0,1,2
611,0,0,0,0,0,0,1,0,0,0,0,1,2
612,0,0,0,0,0,0,1,0,0,0,0,1,2
613,0,0,0,0,0,0,1,0,0,0,0,1,2
614,0,0,0,-1,0,0,1,0,0,0,0,1,3
615,0,0,0,0,0,0,1,0,0,0,0,1,2
616,0,0,0,0,0,0,1,0,0,0,0,1,2
617,0,0,0,0,0,0,1,0,0,0,0,1,2
618,0,0,0,0,0,0,1,0,0,0,0,1,2
619,0,0,0,0,0,0,1,0,0,0,0,1,2
620,0,0,0,0,0,0,1,0,0,0,0,1,2
621,0,0,0,0,0,0,1,0,0,0,0,1,2
622,0,0,0,0,0,0,1,0,0,0,0,1,2
623,0,0,0,0,0,0,1,0,0,0,0,1,2
624,0,0,0,0,0,0,1,0,0,0,0,1,2
625,0,0,0,0,0,0,1,0,0,0,0,1,2
626,0,0,0,0,0,0,1,0,0,0,0,1,2
627,0,0,0,0,0,0,1,0,0,0,0,1,2
628,0,0,0,0,0,0,1,0,0,0,0,1,4
629,0,0,0,0,0,0,1,0,0,0,0,1,2
630,0,0,0,0,0,0,1,0,0,0,0,1,2
631,0,0,0,0,0,0,1,0,0,0,0,1,2
632,0,0,0,0,0,0,1,0,0,0,0,1,2
633,0,0,0,0,0,0,1,0,0,0,0,1,2
634,0,0,0,0,0,0,1,0,0,0,0,1,2
635,0,0,0,0,0,0,1,0,0,0,0,1,2
636,0,0,0,0,0,0,1,0,0,0,0,1,2
637,0,0,0,0,0,0,1,0,0,0,0,1,2
638,0,0,0,0,0,0,1,0,0,0,0,1,2
639,0,0,0,0,0,0,1,0,0,0,0,1,2
640,0,0,0,0,0,0,1,0,0,0,0,1,2
641,0,0,0,0,0,0,1,0,0,0,0,1,2
642,0,0,0,0,0,0,1,0,0,0,0,1,2
643,0,0,0,0,0,0,1,0,0,0,0,1,2
644,0,0,0,0,0,0,1,0,0,0,0,1,2
645,0,0,0,0,0,0,1,0,0,0,0,1,2
646,0,0,0,0,0,0,1,0,0,0,0,1,2
647,0,0,0,0,0,0,1,0,0,0,0,1,2
648,0,0,0,0,0,0,1,0,0,0,0,1,2
649,0,0,0,0,0,0,1,0,0,0,0,1,2
650,0,0,0,0,0,0,1,0,0,0,0,1,2
651,0,0,0,0,0,0,1,0,0,0,0,1,2
652,0,0,0,0,0,0,1,0,0,0,0,1,2
653,0,0,0,0,0,0,1,0,0,0,0,1,2
654,0,0,0,0,0,0,1,0,0,0,0,1,2
655,0,0,0,0,0,0,1,0,0,0,0,1,2
656,0,0,0,0,0,0,1,0,0,0,0,1,2
657,0,0,0,0,0,0,1,0,0,0,0,1,2
658,0,0,0,0,0,0,1,0,0,0,0,1,2
659,0,0,0,0,0,0,1,0,0,0,0,1,2
660,0,0,0,0,0,0,1,0,0,0,0,1,2
661,0,0,0,0,0,0,1,0,0,0,0,1,2
662,0,0,0,0,0,0,1,0,0,0,0,1,2
663,0,0,0,0,0,0,1,0,0,0,0,1,2
664,0,0,0,0,0,0,1,0,0,0,0,1,2
665,0,0,0,0,0,0,1,0,0,0,0,1,2
666,0,0,0,0,0,0,1,0,0,0,0,1,2
667,0,0,0,0,0,0,1,0,0,0,0,1,2
668,0,0,0,0,0,0,1,0,0,0,0,1,2
669,0,0,0,0,0,0,1,0,0,0,0,1,2
670,0,0,0,0,0,0,1,0,0,0,0,1,2
671,0,0,0,0,0,0,1,0,0,0,0,1,2
672,0,0,0,0,0,0,1,0,0,0,0,1,2
673,0,0,0,0,0,0,1,0,0,0,0,1,2
674,0,0,0,0,0,0,1,0,0,0,0,1,2
675,0,0,0,0,0,0,1,0,0,0,0,1,2
676,0,0,0,0,0,0,1,0,0,0,0,1,2
677,0,0,0,0,0,0,1,0,0,0,0,1,2
678,0,0,0,0,0,0,1,0,0,0,0,1,2
679,0,0,0,-1,0,0,1,0,0,1,0,1,47
680,0,0,0,0,0,0,1,0,0,0,0,1,2
681,0,0,0,0,0,0,1,0,0,0,0,1,2
682,0,0,0,-1,0,0,1,0,0,0,0,1,47
683,0,0,0,0,0,0,1,0,0,0,0,1,2
684,0,0,0,0,0,0,1,0,0,0,0,1,2
685,0,0,0,0,0,0,1,0,0,0,0,1,2
686,0,0,0,0,0,0,1,0,0,0,0,1,2
687,0,0,0,0,0,0,1,0,0,0,0,1,2
688,0,0,0,0,0,0,1,0,0,0,0,1,2
689,0,0,0,0,0,0,1,0,0,0,0,1,2
690,0,0,0,0,0,0,1,0,0,0,0,1,2
691,0,0,0,0,0,0,1,0,0,0,0,1,2
692,0,0,0,0,0,0,1,0,0,0,0,1,2
693,0,0,0,0,0,0,1,0,0,0,0,1,2
694,0,0,0,0,0,0,1,0,0,0,0,1,2
695,0,0,0,0,0,0,1,0,0,0,0,1,2
696,0,0,0,0,0,0,1,0,0,0,0,1,2
697,0,0,0,0,0,0,1,0,0,0,0,1,2
698,0,0,0,0,0,0,1,0,0,0,0,1,2
699,0,0,0,0,0,0,1,0,0,0,0,1,2
700,0,0,0,0,0,0,1,0,0,0,0,1,2
701,0,0,0,0,0,0,1,0,0,0,0,1,2
702,0,0,0,0,0,0,1,0,0,0,0,1,2
703,0,0,0,0,0,0,1,0,0,0,0,1,2
704,0,0,0,0,0,0,1,0,0,0,0,1,2
705,0,0,0,0,0,0,1,0,0,1,0,1,2
706,0,0,0,0,0,0,1,0,0,1,0,1,4
707,0,0,4,-1,4,0,1,0,0,0,1,1,13
708,0,0,0,-1,0,0,1,1,0,1,0,1,6
709,0,0,0,-1,0,0,1,0,0,0,0,1,2
710,0,0,0,1,0,0,1,0,0,0,0,1,9
711,0,0,0,-1,0,0,1,1,0,1,0,1,6
712,0,0,0,0,0,0,0,0,0,0,0,1,1
713,0,0,1,0,0,0,1,0,0,1,1,1,24
714,0,0,0,1,0,0,1,0,0,0,0,1,15
715,0,0,0,0,0,0,1,0,0,1,0,1,9
716,0,0,0,1,0,0,1,0,0,0,0,1,15
717,0,0,0,-1,0,0,1,0,0,0,0,1,26
718,0,0,0,-1,0,0,1,0,0,0,0,1,26
719,0,0,0,1,0,0,1,0,0,0,0,1,15
720,0,0,0,-1,0,0,1,0,0,0,0,1,28
721,0,0,0,0,0,0,1,0,0,0,0,1,1
722,0,0,0,0,0,0,1,0,0,0,0,1,1
723,0,0,0,0,0,0,1,0,0,0,0,1,1
724,0,0,0,0,0,0,1,0,0,1,0,1,9
725,0,0,0,0,0,0,1,0,0,0,0,1,6
726,0,0,0,-1,0,0,1,0,0,0,0,1,26
727,0,0,3,0,0,0,1,0,0,0,0,1,5
728,0,0,0,-1,0,0,1,1,0,0,0,1,6
729,0,0,0,0,0,0,1,0,0,1,0,1,82
730,0,0,0,0,0,0,1,0,0,0,0,1,1
731,0,0,0,0,0,0,1,0,0,1,0,1,9
732,0,0,0,-1,0,0,1,0,0,1,0,1,5
733,0,0,0,0,0,0,1,0,0,0,0,1,11
734,0,0,0,0,0,0,1,0,0,0,0,1,11
735,0,0,0,0,0,0,1,0,0,0,0,1,11
736,0,0,0,-1,0,0,1,0,0,1,0,1,28
737,0,0,0,0,0,0,1,0,0,0,0,1,1
738,0,0,0,-1,0,0,0,0,0,0,0,1,1
739,0,0,0,0,0,0,1,0,0,1,0,1,82
740,0,0,0,-1,0,0,1,0,0,1,0,1,5
741,0,0,0,0,0,0,1,0,0,1,0,1,9
742,0,0,0,0,0,0,1,0,0,0,0,1,1
743,0,0,0,0,0,0,1,0,0,0,0,1,1
744,0,0,0,0,0,0,1,0,0,1,0,1,82
745,0,0,0,0,0,0,1,0,0,0,0,1,2
746,0,0,0,0,0,0,1,0,0,1,0,1,9
747,0,0,0,0,0,0,1,0,0,1,0,1,1
748,0,0,0,0,0,0,1,0,0,0,0,1,24
749,0,0,0,-1,0,0,1,0,0,0,0,1,1
750,0,0,0,0,0,0,1,0,0,0,0,1,1
751,0,0,0,-1,0,0,1,0,0,0,0,1,1
752,0,0,0,0,0,0,1,0,0,1,0,1,9
753,0,0,0,0,0,0,1,0,0,1,0,1,9
754,0,0,0,-1,0,0,1,0,0,0,0,1,3
755,0,0,0,0,0,0,1,0,0,1,0,1,3
756,0,1,0,0,0,0,1,0,0,0,0,1,10
757,0,0,0,0,0,0,1,0,0,0,0,1,1
758,0,0,0,0,0,0,1,0,0,0,0,1,1
759,0,0,0,-1,0,0,1,0,0,0,0,1,6
760,0,0,0,0,0,0,1,0,0,1,0,1,2
761,0,0,0,-1,0,0,1,0,0,1,0,1,14
762,0,0,0,-1,0,0,1,0,0,1,0,1,3
763,0,0,0,0,0,0,1,0,0,0,0,1,21
764,0,0,0,-1,0,0,1,0,0,0,0,1,4
765,0,0,0,-1,0,0,0,0,0,0,0,1,4
766,0,0,0,0,0,0,1,0,0,0,0,1,1
767,0,0,0,0,0,0,1,0,0,0,0,1,7
768,0,0,0,-1,0,0,1,0,0,0,0,1,25
769,0,0,1,0,1,0,1,0,0,0,0,1,19
770,0,0,0,0,0,0,1,0,0,0,0,1,17
771,0,0,0,-1,0,0,1,0,0,1,0,1,14
772,0,0,0,-1,0,0,1,0,0,1,0,1,18
773,0,0,0,0,0,0,1,0,0,0,0,1,1
774,0,0,0,0,0,0,1,0,0,0,0,1,1
775,0,0,0,-1,0,0,1,0,0,0,0,1,6
776,0,0,0,0,0,0,1,0,0,0,0,1,7
777,0,0,0,0,0,0,1,0,0,1,0,1,4
778,0,0,0,-1,0,0,1,0,0,0,0,1,5
779,0,0,0,0,0,0,1,0,0,0,0,1,1
780,0,0,0,1,0,0,1,0,0,0,0,1,12
781,0,0,0,-1,0,0,1,0,0,1,0,1,10
782,0,0,0,0,0,0,1,0,0,0,0,1,4
783,0,0,0,-1,0,0,1,0,0,1,0,1,9
784,0,0,0,0,0,0,1,0,0,1,0,1,34
785,0,0,0,-1,0,0,1,0,0,0,0,1,4
786,0,0,0,0,0,0,1,0,0,0,0,1,53
787,0,0,0,0,0,0,1,0,0,1,0,1,3
788,0,0,0,-1,0,0,1,1,0,0,0,1,6
789,0,0,0,0,0,0,1,0,0,0,0,1,4
790,0,0,0,0,0,0,1,0,0,0,0,1,53
791,0,0,0,0,0,0,1,0,0,0,0,1,3
792,0,0,0,0,0,0,1,0,0,0,0,1,3
793,0,0,0,0,0,0,1,0,0,0,0,1,20
794,0,0,0,0,0,0,1,0,0,1,0,1,9
795,0,0,0,0,0,0,1,0,0,0,0,1,1
796,0,0,0,0,0,0,1,0,0,0,0,1,1
797,0,0,0,0,0,0,1,0,0,1,0,1,9
798,0,0,0,-1,0,0,1,0,0,1,0,1,9
799,0,0,0,0,0,0,1,0,0,1,0,1,16
800,0,0,0,0,0,0,1,0,0,1,0,1,9
801,0,0,0,2,0,0,1,0,0,0,3,1,60
802,0,0,0,0,0,0,1,0,0,0,0,1,3
803,0,0,0,2,0,0,1,0,0,0,3,1,60
804,0,0,0,2,0,0,1,0,0,0,3,1,60
805,0,0,0,2,0,0,1,0,0,0,3,1,60
806,0,0,0,2,0,0,1,0,0,0,3,1,60
807,0,0,0,2,0,0,1,0,0,0,3,1,60
808,0,0,0,2,0,0,1,0,0,0,3,1,60
809,0,0,0,-1,0,0,1,0,0,0,0,1,26
810,0,0,0,-1,0,0,1,0,0,1,0,1,3
811,0,0,0,0,0,0,1,0,0,1,0,1,9
812,0,0,0,0,0,0,1,0,0,1,0,1,9
813,0,0,0,0,0,0,1,0,0,0,0,1,1
814,0,0,5,-1,1,0,1,0,0,0,1,1,4
815,0,0,0,0,0,0,1,0,0,0,0,1,3
816,0,0,0,0,0,0,1,0,0,0,0,1,3
817,0,0,0,0,0,0,1,0,0,0,0,1,3
818,0,0,0,-1,0,0,1,0,0,0,0,1,3
819,0,0,0,0,0,0,1,0,0,1,0,1,3
820,0,0,0,0,0,0,1,0,0,1,0,1,3
821,0,0,0,-1,0,0,1,0,0,0,0,1,3
822,0,0,0,0,0,0,1,0,0,1,0,1,4
823,0,0,0,0,0,0,1,0,0,0,0,1,2
824,0,0,4,-1,4,0,1,0,0,0,1,1,13
825,0,0,0,0,0,0,1,0,0,0,0,1,1
826,0,0,0,0,0,0,1,0,0,0,0,1,1
827,0,0,0,0,0,0,1,0,0,1,0,1,9
828,0,0,0,-1,0,0,1,0,0,0,0,1,13
829,0,0,0,0,0,0,1,0,0,1,0,1,16
830,0,0,0,0,0,0,1,0,0,0,0,1,3
831,0,0,0,-1,0,0,1,0,0,0,0,1,1
832,0,0,0,-1,0,0,1,0,0,0,0,1,3
833,0,0,0,0,0,0,1,0,0,1,0,1,9
834,0,0,0,0,0,0,1,0,0,0,0,1,1
835,0,0,0,0,0,0,1,0,0,1,0,1,8
836,0,0,0,0,0,0,1,0,0,1,0,1,3
837,0,0,0,0,0,0,1,0,0,1,0,1,3
838,0,0,0,0,0,0,1,0,0,1,0,1,9
839,0,0,0,0,0,0,1,0,0,1,0,1,9
840,0,0,0,0,0,0,1,0,0,1,0,1,9
841,0,0,0,0,0,0,1,0,0,1,0,1,9
842,0,0,0,0,0,0,1,0,0,0,0,1,1
843,0,0,0,0,0,0,1,0,0,1,0,1,3
844,0,0,0,0,0,0,1,0,0,1,0,1,9
845,0,0,0,-1,0,0,1,0,0,0,0,1,21
846,0,0,0,-1,0,0,1,0,0,0,0,1,15
847,0,0,0,2,0,0,1,0,0,0,3,1,60
848,0,0,0,0,0,0,1,0,0,1,0,1,3
849,0,0,0,0,0,0,1,0,0,1,0,1,2
850,0,0,1,-1,0,0,1,0,0,0,0,1,5
851,0,0,0,0,0,0,1,0,0,1,0,1,45
852,0,0,1,0,0,0,1,0,0,0,0,1,5
853,0,0,1,0,0,0,1,0,0,0,0,1,5
854,0,0,0,1,0,0,1,0,0,0,0,1,15
855,0,0,0,1,0,0,1,0,0,0,0,1,15
856,0,0,1,-1,0,0,1,0,0,0,0,1,5
857,0,0,0,0,0,0,1,0,0,0,0,1,13
858,0,0,0,0,0,0,1,0,0,0,0,1,4
859,0,0,0,0,0,0,1,0,0,0,0,1,4
860,0,0,0,0,0,0,1,0,0,0,0,1,4
861,0,0,0,0,0,0,1,0,0,0,0,1,4
862,0,0,0,-1,0,0,1,0,0,1,0,1,13
863,0,0,0,0,0,0,1,0,0,1,0,1,4
864,0,0,0,0,0,0,1,0,0,0,0,1,2
865,0,0,0,0,0,0,1,0,0,0,0,1,1
866,0,0,0,0,0,0,1,0,0,0,0,1,2
867,0,0,0,0,0,0,1,0,0,0,0,1,2
868,0,0,0,0,0,0,1,0,0,0,0,1,1
869,0,0,0,0,0,0,1,0,0,0,0,1,2
870,0,0,0,0,0,0,1,0,0,0,0,1,2
871,0,0,0,0,0,0,1,0,0,0,0,1,2
872,0,0,0,0,0,0,1,0,0,1,0,1,2
873,0,0,0,-1,0,0,1,0,0,1,1,1,51
874,0,0,0,2,0,0,1,0,0,0,3,1,60
875,0,0,0,0,0,0,1,0,0,0,0,1,2
876,0,0,0,0,0,0,1,0,0,1,0,1,9
877,0,0,0,0,0,0,1,0,0,1,0,1,48
878,0,0,0,0,0,0,1,0,0,1,0,1,9
879,0,0,0,0,0,0,1,0,0,1,0,1,9
880,0,0,0,0,0,0,1,0,0,1,0,1,9
881,0,0,0,0,0,0,1,0,0,1,0,1,2
882,0,1,0,0,0,0,1,0,0,0,0,1,0
883,0,0,0,0,0,0,1,0,0,0,0,1,1
884,0,0,0,0,0,0,1,0,0,1,0,1,4
885,0,0,0,0,0,0,1,0,0,0,0,1,48
886,0,0,0,0,0,0,1,0,0,1,0,1,11
887,0,0,0,0,0,0,1,0,0,1,0,1,4
888,0,0,0,0,0,0,1,0,0,0,0,1,59
889,0,0,0,0,0,0,1,0,0,0,0,1,4
890,0,0,0,0,0,0,1,0,0,0,0,1,4
891,0,0,0,0,0,0,1,0,0,0,0,1,4
892,0,0,0,0,0,0,1,1,0,0,0,1,7
893,0,0,0,1,0,0,1,0,0,0,0,1,3
894,0,0,0,0,0,0,1,0,0,1,0,1,1
895,0,0,0,0,0,0,1,0,0,1,0,1,60
896,0,0,0,0,0,0,1,0,0,0,0,1,44
897,0,0,0,0,0,0,1,0,0,0,0,1,44
898,0,0,0,-1,0,0,1,0,0,0,0,1,2
899,0,0,0,-2,0,0,0,0,0,0,0,1,2
900,0,0,0,0,0,0,1,0,0,0,0,1,48
901,0,0,0,0,0,0,1,0,0,0,0,1,1
902,0,0,0,-1,0,0,0,0,0,0,0,1,1
903,0,0,0,0,0,0,1,0,0,0,0,1,1
904,0,0,0,-1,0,0,1,0,0,1,2,1,24
905,0,0,0,0,0,0,1,0,0,0,2,1,6
906,0,0,5,-1,1,0,1,0,0,0,1,1,4
907,0,0,0,0,0,0,1,0,0,0,0,1,4
908,0,0,0,0,0,0,1,0,0,0,0,1,1
909,0,0,0,-1,0,0,1,0,0,0,0,1,7
910,0,0,0,0,0,0,1,0,0,0,0,1,6
911,0,0,0,0,0,0,1,0,0,1,0,1,9
912,0,0,0,0,0,0,1,0,0,0,0,1,1
913,0,0,0,0,0,0,1,0,0,0,0,1,1
914,0,0,0,-1,0,0,1,0,0,0,1,1,51
915,0,0,0,0,0,0,1,0,0,1,0,1,9
916,0,0,0,0,0,0,1,0,0,0,1,1,6
917,0,0,0,-1,0,0,1,0,0,1,0,1,5
918,0,0,0,0,0,0,1,0,0,0,0,1,2
919,0,0,0,0,0,0,1,0,0,1,0,1,2
920,0,0,0,-1,0,0,1,0,0,0,0,1,4
921,0,0,0,0,0,0,1,0,0,0,0,1,1
922,0,0,0,0,0,0,1,0,0,0,0,1,4
923,0,0,0,0,0,0,1,1,0,0,0,1,5
924,0,0,0,-1,0,0,1,0,0,0,0,1,2
925,0,0,0,0,0,0,1,0,0,1,0,1,2
926,0,0,0,-1,0,0,1,0,0,0,0,1,5
927,0,0,0,2,0,0,1,0,0,0,0,1,8
928,0,0,0,0,0,0,1,0,0,1,0,1,60
929,0,0,0,0,0,0,1,0,0,1,0,1,9
930,0,0,0,0,0,0,1,0,0,0,0,1,6
931,0,0,0,1,0,0,1,0,0,0,0,1,3
932,0,0,0,1,0,0,1,0,0,0,0,1,3
933,0,0,0,1,0,0,1,0,0,0,0,1,3
934,0,0,0,-1,0,0,1,0,0,1,0,1,5
935,0,0,0,-1,0,0,1,0,0,0,1,1,51
936,0,0,0,-1,0,0,1,0,0,0,0,1,12
937,0,0,0,0,0,0,1,0,0,1,0,1,19
938,0,0,0,0,0,0,1,0,0,1,0,1,4
939,0,0,0,0,0,0,1,0,0,1,0,1,4
940,0,0,0,1,0,0,1,0,0,0,0,1,13
941,0,0,0,-1,0,0,1,0,0,0,1,1,51
942,0,0,0,0,0,0,1,0,0,1,0,1,60
943,0,0,0,-1,0,0,1,0,0,0,1,1,51
944,0,0,0,0,0,0,1,0,0,0,0,1,2
945,0,0,0,-1,0,0,1,0,0,0,0,1,5
946,0,0,0,0,0,0,1,0,0,1,0,1,12
947,0,0,0,0,0,0,1,0,0,0,0,1,5
948,0,0,0,0,0,0,1,0,0,0,0,1,5
949,0,0,0,0,0,0,1,0,0,0,0,1,5
950,0,0,0,-1,0,0,1,0,0,1,1,1,21
951,0,0,0,-1,0,0,1,0,0,0,0,1,2
952,0,0,0,0,0,0,1,0,0,1,0,1,10
953,0,0,0,0,0,0,1,0,0,1,0,1,10
954,0,0,0,-1,0,0,1,0,0,0,0,1,53
955,0,0,0,2,0,0,1,0,0,0,0,1,8
956,0,0,0,0,0,0,1,0,0,0,0,1,2
957,0,0,0,0,0,0,1,0,0,0,0,1,5
958,0,0,0,0,0,0,1,0,0,0,0,1,5
959,0,0,0,2,0,0,1,0,0,0,0,1,8
960,0,0,0,-1,0,0,1,0,0,0,0,1,11
961,0,0,0,1,0,0,1,0,0,0,0,1,4
962,0,0,0,0,0,0,1,0,0,0,0,1,11
963,0,0,0,0,0,0,1,0,0,0,0,1,11
964,0,0,0,-1,0,0,1,0,0,0,0,1,4
965,0,0,0,-1,0,0,1,0,0,0,1,1,51
966,0,0,0,0,0,0,1,0,0,0,0,1,11
967,0,0,0,0,0,0,1,0,0,0,0,1,11
968,0,0,0,1,0,0,1,0,0,0,0,1,4
969,0,0,0,0,0,0,1,0,0,0,0,1,1
970,0,0,0,0,0,0,1,0,0,0,0,1,19
971,0,0,0,0,0,0,1,0,0,0,0,1,1
972,0,0,0,0,0,0,1,0,0,1,0,1,10
973,0,0,0,0,0,0,1,0,0,1,0,1,10
974,0,0,0,0,0,0,1,0,0,1,0,1,10
975,0,0,0,-1,0,0,1,0,0,1,0,1,53
976,0,0,0,0,0,0,1,0,0,0,0,1,49
977,0,0,0,0,0,0,1,1,0,0,0,1,7
978,0,0,0,0,0,0,1,0,0,1,0,1,19
979,0,0,0,0,0,0,1,1,0,0,0,1,7
980,0,0,0,2,0,0,1,0,0,0,0,1,8
981,0,0,0,-1,0,0,1,0,0,0,0,1,7
982,0,0,0,-1,0,0,1,0,0,0,1,1,51
983,0,0,0,1,0,0,1,0,0,0,0,1,4
984,0,0,0,0,0,0,1,0,0,0,1,1,6
985,0,0,0,0,0,0,1,0,0,0,0,1,1
986,0,0,0,-1,0,0,1,0,0,1,0,1,15
987,0,0,0,0,0,0,1,0,0,0,0,1,2
988,0,0,0,0,0,0,1,0,0,0,0,1,1
989,0,0,0,-1,0,0,1,0,0,0,0,1,64
990,0,0,0,1,0,0,1,0,0,1,0,1,16
991,0,0,0,-1,0,0,1,0,0,0,0,1,2
992,0,0,0,0,0,0,1,0,0,1,0,1,4
993,0,0,0,-1,0,0,1,0,0,0,0,1,7
994,0,0,0,-1,0,0,1,0,0,0,0,1,2
995,0,0,0,2,0,0,1,0,0,0,3,1,60
996,0,0,0,0,0,0,1,1,0,1,0,1,9
997,0,0,0,-1,0,0,1,0,0,0,0,1,2
998,0,0,0,0,0,0,1,0,0,0,0,1,81
999,0,0,0,0,0,0,1,0,0,0,2,1,6
1000,0,0,0,0,0,0,1,0,0,0,0,1,37
1001,0,0,0,0,0,0,1,0,0,0,0,1,2
1002,0,0,0,0,0,0,1,1,0,1,0,1,9
1003,0,0,0,-1,0,0,1,0,0,1,0,1,36
1004,0,0,0,-1,0,0,1,0,0,1,0,1,18
1005,0,0,0,0,0,0,1,1,0,1,0,1,9
1006,0,0,0,-1,0,0,1,0,0,1,0,1,36
1007,0,0,0,-1,0,1,1,0,0,0,0,1,44
1008,0,0,0,0,0,0,1,1,0,1,0,1,9
1009,0,0,0,0,0,0,1,0,0,0,0,1,48
1010,0,0,0,0,0,0,1,0,0,0,0,1,48
1011,0,0,0,0,0,0,1,0,0,0,0,1,48
1012,0,0,0,0,0,0,1,0,0,0,0,1,4
1013,0,0,0,0,0,0,1,0,0,1,0,1,4
1014,0,0,0,1,0,0,1,0,0,0,0,1,16
1015,0,0,5,-1,5,0,1,0,0,1,1,1,11
1016,0,0,0,0,0,0,1,0,0,0,0,1,5
1017,0,0,0,-1,0,0,1,0,0,0,0,1,4
1018,0,0,0,0,0,0,1,1,0,0,0,1,13
1019,0,0,0,0,0,0,1,0,0,1,0,1,19
1020,0,0,0,0,0,0,1,0,0,1,0,1,3
1021,0,0,0,0,0,0,1,0,0,0,0,1,5
1022,0,0,0,-1,0,0,1,0,0,0,0,1,53
1023,0,0,0,0,0,0,1,0,0,0,0,1,10
1024,0,0,0,0,0,0,1,0,0,0,0,1,3
1025,0,0,0,0,0,0,1,0,0,0,0,1,44
1026,0,0,0,-1,0,0,1,0,0,1,2,1,7
1027,0,0,0,-1,0,0,1,0,0,0,0,1,4
1028,0,0,0,-1,0,0,1,0,0,1,2,1,7
1029,0,0,0,0,0,0,1,0,0,0,0,1,3
1030,0,0,0,-1,0,0,1,0,0,0,0,1,27
1031,0,0,0,-1,0,1,1,0,0,0,0,1,11
1032,0,0,0,0,0,0,1,1,0,1,0,1,9
1033,0,0,0,-1,0,0,1,0,0,1,0,1,48
1034,0,0,0,-1,0,0,1,0,0,1,2,1,7
1035,0,0,0,0,0,0,1,0,0,0,1,1,6
1036,0,0,0,0,0,0,1,0,0,0,0,1,3
1037,0,0,0,0,0,0,1,1,0,1,0,1,9
1038,0,0,0,0,0,0,1,0,0,0,1,1,6
1039,0,0,0,-1,0,0,1,0,0,1,0,1,15
1040,0,0,0,-1,0,0,1,0,0,1,0,1,3
1041,0,0,0,-1,0,0,1,0,0,1,2,1,7
1042,0,0,0,0,0,0,1,0,0,1,0,1,3
1043,0,0,0,0,0,0,1,0,0,0,0,1,11
1044,0,0,0,0,0,0,1,0,0,1,0,1,21
1045,0,0,0,0,0,0,1,0,0,1,0,1,21
1046,0,0,0,0,0,0,1,0,0,0,0,1,30
1047,0,0,0,-1,0,0,1,0,0,1,0,1,4
1048,0,0,0,-1,0,0,1,0,0,0,0,1,4
1049,0,0,0,0,0,0,1,0,0,1,0,1,21
1050,0,0,0,0,0,0,1,0,0,1,0,1,45
1051,0,0,0,0,0,0,1,0,0,1,0,1,21
1052,0,0,0,0,0,0,1,0,0,1,0,1,4
1053,0,0,0,1,0,0,1,0,0,0,1,1,5
1054,0,0,0,-1,0,0,1,0,0,1,0,1,4
1055,0,0,0,0,0,0,1,1,0,1,0,1,9
1056,0,0,0,-1,0,0,1,0,0,0,0,1,10
1057,0,0,0,-1,0,0,1,0,0,0,0,1,2
1058,0,0,0,-1,0,0,1,0,0,0,0,1,2
1059,0,0,0,0,0,0,1,1,0,1,0,1,9
1060,0,0,0,0,0,0,1,1,0,1,0,1,9
1061,0,0,0,0,0,0,1,0,0,0,0,1,12
1062,0,0,0,-1,0,0,1,1,0,0,0,1,13
1063,0,0,0,0,0,0,1,0,0,1,0,1,2
1064,0,0,0,-1,0,0,1,0,0,0,0,1,4
1065,0,0,0,-1,0,0,1,0,0,1,0,1,11
1066,0,0,0,0,0,0,1,0,0,0,0,1,44
1067,0,0,0,0,0,0,1,0,0,0,0,1,44
1068,0,0,0,0,0,0,1,0,0,0,0,1,24
1069,0,0,0,0,0,0,1,0,0,0,0,1,2
1070,0,0,0,1,0,0,1,0,0,0,0,1,3
1071,0,0,0,-1,0,0,1,0,0,0,0,1,4
1072,0,0,0,-1,0,0,1,0,0,0,0,1,15
1073,0,0,5,-1,1,0,1,0,0,0,1,1,5
1074,0,0,0,-1,0,0,1,0,0,1,0,1,10
1075,0,0,0,-1,0,0,1,0,0,1,0,1,36
1076,0,0,0,0,0,0,1,0,0,1,0,1,19
1077,0,0,0,-1,0,0,1,0,0,1,0,1,3
1078,0,0,0,-1,0,0,1,0,0,0,0,1,4
1079,0,0,0,0,0,0,1,0,0,0,2,1,7
1080,0,0,0,0,0,0,1,0,0,0,2,1,7
1081,0,0,0,0,0,0,1,0,1,1,0,1,43
1082,0,0,0,0,0,0,1,0,0,0,0,1,8
1083,0,0,0,-1,0,0,1,0,0,0,0,1,5
1084,0,0,0,0,0,0,1,0,0,1,0,1,12
1085,0,0,0,1,0,0,1,0,0,0,0,1,5
1086,0,0,0,0,0,0,1,0,0,0,0,1,8
1087,0,0,0,0,0,0,1,0,0,1,0,1,12
1088,0,0,0,-1,0,0,1,0,0,1,0,1,18
1089,0,0,0,0,0,0,1,0,0,0,0,1,51
1090,0,0,0,0,0,0,1,0,0,0,0,1,5
1091,0,0,0,0,0,0,1,0,0,0,0,1,8
1092,0,0,0,0,0,0,1,0,0,0,0,1,5
1093,0,0,0,0,0,0,1,0,0,1,0,1,12
1094,0,0,0,-1,0,0,1,0,0,1,0,1,18
1095,0,0,0,0,0,0,1,0,0,0,0,1,26
1096,0,0,0,-1,0,0,1,0,0,1,0,1,15
1097,0,0,0,-1,0,0,1,0,0,1,0,1,1
1098,0,0,0,0,0,0,1,0,0,0,0,1,1
1099,0,0,0,0,0,0,1,0,0,1,0,1,19
1100,0,0,0,-1,0,0,1,0,0,0,0,1,2
1101,0,0,0,0,0,0,1,0,0,0,0,1,1
1102,0,0,0,0,0,0,1,0,0,1,0,1,19
1103,0,0,0,0,0,0,1,0,0,0,0,1,34
1104,0,0,0,0,0,0,1,0,0,1,0,1,38
1105,0,0,0,-1,0,0,1,0,0,0,0,1,8
1106,0,0,0,0,0,0,1,0,0,0,0,1,0
1107,0,0,0,0,0,0,1,0,0,0,0,1,19
1108,0,0,5,-1,1,0,1,0,0,1,1,1,5
1109,0,0,0,0,0,0,1,0,0,0,0,1,51
1110,0,0,0,1,0,0,0,0,0,0,0,1,1
1111,0,0,0,0,0,0,1,0,1,1,0,1,43
1112,0,0,0,1,0,0,1,0,0,0,0,1,4
1113,0,0,0,1,0,0,1,0,0,0,0,1,4
1114,0,0,0,0,0,0,1,0,0,0,0,1,12
1115,0,0,0,0,0,0,1,0,0,0,0,1,2
1116,0,0,0,1,0,0,1,0,0,0,0,1,49
1117,0,0,0,-1,0,0,1,0,0,0,0,1,15
1118,0,0,0,0,0,0,1,0,0,0,0,1,46
1119,0,0,0,0,0,0,1,0,0,0,0,1,53
1120,0,0,0,-1,0,0,1,0,0,0,0,1,2
1121,0,0,0,-1,0,0,1,0,0,0,0,1,9
1122,0,0,0,0,0,0,1,0,0,1,0,1,21
1123,0,0,0,1,0,0,1,0,0,0,0,1,11
1124,0,0,0,1,0,0,1,0,0,0,0,1,45
1125,0,0,0,1,0,0,1,0,0,0,0,1,12
1126,0,0,0,0,0,0,1,0,0,0,0,1,1
1127,0,0,2,1,0,0,1,0,0,1,0,1,47
1128,0,0,0,0,0,0,1,0,0,0,0,1,24
1129,0,0,0,0,0,0,1,0,0,0,0,1,2
1130,0,0,0,-1,0,0,1,0,0,0,0,1,3
1131,0,0,0,1,0,0,1,0,0,0,0,1,4
1132,0,0,0,1,0,0,1,0,0,0,0,1,1
1133,0,0,0,-1,0,0,1,0,0,0,0,1,2
1134,0,0,0,0,0,0,1,0,0,0,0,1,2
1135,0,0,0,0,0,0,1,0,0,0,0,1,4
1136,0,0,0,1,0,0,1,0,0,0,0,1,14
1137,0,0,0,0,0,0,1,0,0,0,0,1,9
1138,0,0,0,0,0,0,1,0,0,0,0,1,9
1139,0,0,0,0,0,0,1,0,0,0,0,1,12
1140,0,0,0,0,0,0,1,0,0,0,0,1,33
1141,0,0,0,0,0,0,1,0,0,0,0,1,1
1142,0,0,0,0,0,0,1,0,0,0,2,1,15
1143,0,0,0,-1,0,0,1,0,0,0,0,1,47
1144,0,0,0,0,0,0,1,0,0,0,0,1,1
1145,0,0,0,0,0,0,1,0,0,0,0,1,1
1146,0,0,0,0,0,0,1,0,0,0,0,1,1
1147,0,0,0,1,0,0,1,0,0,1,1,1,14
1148,0,0,0,1,0,0,1,0,0,0,0,1,1
1149,0,0,2,1,0,0,1,0,0,0,0,1,45
1150,0,0,2,1,0,0,1,0,0,0,0,1,45
1151,0,0,0,0,0,0,1,0,0,0,0,1,9
1152,0,0,0,0,0,0,1,0,0,0,0,1,9
1153,0,0,0,0,0,0,1,0,0,0,0,1,1
1154,0,0,0,0,0,0,1,0,0,0,0,1,42
1155,0,0,0,0,0,0,1,1,0,1,0,1,7
1156,0,0,0,0,0,0,1,0,0,0,0,1,1
1157,0,0,0,0,0,0,1,0,0,0,0,1,2
1158,0,0,0,0,0,0,1,0,0,1,0,1,47
1159,0,0,0,1,0,0,1,0,0,1,0,1,21
1160,0,0,0,1,0,0,1,0,0,1,0,1,21
1161,0,0,0,1,0,0,1,0,0,1,0,1,21
1162,0,0,0,-1,0,0,1,0,0,0,0,1,3
1163,0,0,0,1,0,0,1,0,0,0,0,1,2
1164,0,0,0,0,0,0,1,0,0,0,0,1,2
1165,0,0,0,0,0,0,1,1,0,1,0,1,7
1166,0,0,0,0,0,0,1,1,0,1,0,1,7
1167,0,0,0,0,0,0,1,1,0,0,0,1,7
1168,0,0,0,0,0,0,1,1,0,0,0,1,7
1169,0,0,0,0,0,0,1,0,0,1,0,1,47
1170,0,0,0,-1,0,0,1,0,0,0,0,1,3
1171,0,0,0,-1,0,0,1,0,0,0,0,1,2
1172,0,0,0,1,0,0,1,0,0,0,0,1,18
1173,0,0,0,1,0,0,1,0,0,0,0,1,18
1174,0,0,0,1,0,0,1,0,0,0,0,1,18
1175,0,0,0,1,0,0,1,0,0,0,0,1,18
1176,0,0,0,-1,0,0,1,0,0,0,0,1,12
1177,0,0,0,0,0,0,1,0,0,0,0,1,3
1178,0,0,0,0,0,0,1,0,0,1,0,1,47
1179,0,0,0,-1,0,0,1,0,0,0,0,1,21
1180,0,0,0,-1,0,0,1,0,0,0,0,1,47
1181,0,0,0,-1,0,0,1,0,0,1,0,1,12
1182,0,0,0,0,0,0,1,0,0,0,0,1,21
1183,0,0,0,-1,0,0,1,0,0,0,0,1,3
1184,0,0,0,-1,0,0,1,0,0,0,0,1,3
1185,0,0,0,-1,0,0,1,0,0,0,0,1,48
1186,0,0,0,-1,0,0,1,0,0,0,0,1,5
1187,0,0,0,-1,0,0,1,0,0,0,0,1,48
1188,0,0,0,-1,0,0,1,0,0,0,0,1,3
1189,0,0,0,0,0,0,1,0,0,1,0,1,21
1190,0,0,0,0,0,0,1,0,0,0,0,1,2
1191,0,0,0,-1,0,0,1,0,0,0,0,1,47
1192,0,0,0,-1,0,0,1,0,0,0,0,1,3
1193,0,0,0,-1,0,0,1,0,0,0,0,1,47
1194,0,0,5,-1,1,0,1,0,0,0,1,1,4
1195,0,0,2,-1,2,0,1,0,0,0,0,1,8
1196,0,0,0,0,0,0,1,0,0,0,0,1,5
1197,0,0,0,0,0,0,1,0,0,0,0,1,1
1198,0,0,0,-1,0,0,1,0,0,0,0,1,3
1199,0,0,0,0,0,0,1,0,0,0,0,1,5
1200,0,0,0,-1,0,0,1,0,0,0,0,1,5
1201,0,0,0,-1,0,0,0,0,0,0,0,1,1
1202,0,0,0,-1,0,0,1,0,0,0,0,1,4
1203,0,0,0,-1,0,0,1,0,0,1,0,1,1
1204,0,0,0,-1,0,0,1,0,0,1,0,1,1
1205,0,0,0,-1,0,0,1,0,0,0,0,1,5
1206,0,0,1,-1,1,0,1,1,0,0,7,1,11
1207,0,0,0,-1,0,0,1,0,0,1,0,1,1
1208,0,0,0,-1,0,0,1,0,0,1,0,1,1
1209,0,0,0,-1,0,0,1,0,0,1,0,1,3
1210,0,0,0,0,0,0,1,0,0,0,0,1,3
1211,0,0,0,-1,0,0,1,0,0,0,0,1,2
1212,0,0,0,0,0,0,1,0,0,0,0,1,1
1213,0,0,0,1,0,0,0,0,0,0,0,1,0
1214,0,0,0,-1,0,0,1,0,0,0,0,1,7
1215,0,0,0,0,0,0,1,0,0,0,0,1,6
1216,0,0,0,0,0,0,1,0,0,1,0,1,44
1217,0,0,0,0,0,0,1,0,0,1,0,1,44
1218,0,0,0,0,0,0,1,1,0,1,0,1,7
1219,0,0,0,0,0,0,1,1,0,1,0,1,7
1220,0,0,0,0,0,0,1,1,0,1,0,1,7
1221,0,0,0,0,0,0,1,0,0,1,0,1,44
1222,0,0,0,-1,0,0,1,0,0,0,0,1,47
1223,0,0,0,-1,0,0,1,0,0,1,0,1,3
1224,0,0,0,0,0,0,1,0,0,0,0,1,1
1225,0,0,0,-1,0,0,1,0,0,0,0,1,2
1226,0,0,0,-1,0,0,1,0,0,0,0,1,2
1227,0,0,0,0,0,0,1,0,0,0,0,1,8
1228,0,0,0,0,0,0,1,1,0,0,0,1,7
1229,0,0,0,0,0,0,1,0,0,0,0,1,43
1230,0,0,0,-1,0,0,1,0,0,1,0,1,4
1231,0,0,0,0,0,0,1,1,0,0,0,1,7
1232,0,0,0,-1,0,0,1,0,0,0,0,1,47
1233,0,0,0,0,0,0,1,0,0,0,0,1,1
1234,0,0,0,0,0,0,1,0,0,0,0,1,10
1235,0,0,0,0,0,0,1,0,0,0,0,1,9
1236,0,0,0,0,0,0,1,0,0,0,0,1,9
1237,0,0,0,-1,0,0,1,0,0,0,0,1,3
1238,0,0,0,1,0,0,1,0,0,0,0,1,4
1239,0,0,0,-1,0,0,1,0,1,0,0,1,6
1240,0,0,0,0,0,0,1,0,0,1,0,1,46
1241,0,0,0,-1,0,0,1,0,0,0,0,1,6
1242,0,0,0,0,0,0,1,0,0,1,0,1,46
1243,0,0,0,-1,0,0,1,0,0,0,0,1,13
1244,0,0,0,0,0,0,1,0,0,1,0,1,21
1245,0,0,0,0,0,0,1,0,0,1,0,1,46
1246,0,0,0,0,0,0,1,0,0,0,0,1,7
1247,0,0,0,-1,0,0,1,0,0,0,0,1,51
1248,0,0,0,-1,0,0,1,0,1,0,0,1,6
1249,0,0,0,-1,0,0,1,0,1,0,0,1,6
1250,0,0,0,-1,0,0,1,0,0,0,0,1,51
1251,0,0,0,-1,0,0,1,0,0,0,0,1,51
1252,0,0,0,-1,0,0,1,0,0,1,0,1,8
1253,0,0,0,-1,0,0,1,0,0,1,0,1,8
1254,0,0,0,0,0,0,1,0,0,0,0,1,1
1255,0,0,0,-1,0,0,1,0,0,1,0,1,6
1256,0,0,0,-1,0,0,1,0,0,0,0,1,5
1257,0,0,0,0,0,0,1,0,0,0,0,1,13
1258,0,0,0,-1,0,0,1,0,0,1,0,1,2
1259,0,0,0,-1,0,0,1,0,0,0,0,1,51
1260,0,0,0,0,0,0,1,0,0,0,0,1,46
1261,0,0,0,-1,0,0,1,0,0,0,0,1,51
1262,0,0,0,0,0,0,1,0,0,0,0,1,46
1263,0,0,0,0,0,0,1,0,0,0,0,1,2
1264,0,0,0,0,0,0,1,0,0,0,0,1,3
1265,0,0,0,0,0,0,1,0,0,0,0,1,4
1266,0,0,0,0,0,0,1,0,0,0,0,1,4
1267,0,0,0,0,0,0,1,0,0,0,0,1,47
1268,0,0,0,1,0,0,1,0,0,0,0,1,2
1269,0,0,0,0,0,0,1,0,0,0,0,1,47
1270,0,0,0,-1,0,0,1,0,0,0,0,1,51
1271,0,0,0,-1,0,0,1,0,0,1,0,1,7
1272,0,0,0,0,0,0,1,0,0,0,0,1,47
1273,0,0,0,-1,0,0,1,0,0,1,0,1,18
1274,0,0,0,-1,0,0,1,0,0,1,0,1,18
1275,0,0,0,-1,0,0,1,0,0,0,0,1,10
1276,0,0,0,0,0,0,1,1,0,0,0,1,7
1277,0,0,0,0,0,0,1,0,0,0,0,1,1
1278,0,0,0,0,0,0,1,0,0,0,0,1,47
1279,0,0,0,0,0,0,1,0,0,0,0,1,3
1280,0,0,0,0,0,0,1,0,0,0,0,1,3
1281,0,0,0,0,0,0,1,0,0,0,0,1,1
1282,0,0,0,0,0,0,1,0,0,0,0,1,1
1283,0,0,2,-1,2,0,1,0,0,0,0,1,10
1284,0,0,0,0,0,0,1,0,0,0,0,1,4
1285,0,0,0,-1,0,0,1,0,0,0,0,1,4
1286,0,0,0,-1,0,0,1,0,0,1,0,1,3
1287,0,0,0,-1,0,0,1,0,0,0,0,1,11
1288,0,0,0,0,0,0,1,0,0,0,0,1,1
1289,0,0,0,-1,0,0,1,0,0,0,0,1,2
1290,0,0,0,2,0,0,1,0,0,0,0,1,7
1291,0,0,0,-1,0,0,1,0,0,1,0,1,51
1292,0,0,0,-1,0,0,1,0,0,1,0,1,51
1293,0,0,0,-1,0,0,1,0,0,1,0,1,51
1294,0,0,0,-1,0,0,1,0,0,1,0,1,51
1295,0,0,0,-1,0,0,1,0,0,0,0,1,47
1296,0,0,0,-1,0,0,1,0,0,1,0,1,3
1297,0,0,0,-1,0,0,1,0,0,0,0,1,13
1298,0,0,0,0,0,0,1,0,0,0,0,1,1
1299,0,0,0,-1,0,0,1,0,0,1,0,1,1
1300,0,0,0,0,0,0,1,0,0,1,0,1,14
1301,0,0,0,-1,0,0,1,0,0,1,0,1,2
1302,0,0,0,-1,0,0,1,0,0,0,0,1,6
1303,0,0,0,-1,0,0,1,0,0,0,0,1,6
1304,0,0,0,0,0,0,1,0,0,1,0,1,1
1305,0,0,0,0,0,0,1,0,0,0,0,1,11
1306,0,0,0,0,0,0,1,0,0,0,0,1,11
1307,0,0,0,-1,0,0,1,0,0,0,0,1,47
1308,0,0,0,-1,0,0,1,0,0,1,0,1,13
1309,0,0,0,-1,0,0,1,0,0,0,0,1,6
1310,0,0,0,-1,0,0,1,0,0,1,0,1,3
1311,0,0,0,0,0,0,1,0,0,0,0,1,6
1312,0,0,0,0,0,0,1,0,0,0,0,1,10
1313,0,0,0,0,0,0,1,0,0,0,0,1,1
1314,0,0,0,0,0,0,1,0,0,0,0,1,10
1315,0,0,0,0,0,0,1,0,0,1,0,1,3
1316,0,0,0,0,0,0,1,0,0,0,0,1,47
1317,0,0,0,0,0,0,1,0,0,0,0,1,3
1318,0,0,0,-1,0,0,1,0,0,0,0,1,47
1319,0,0,0,-1,0,0,1,0,0,0,0,1,3
1320,0,0,0,-1,0,0,1,0,0,0,0,1,15
1321,0,0,0,-1,0,0,1,0,0,0,0,1,11
1322,0,0,0,-1,0,0,0,0,0,1,0,1,1
1323,0,0,0,-1,0,0,1,1,0,0,0,1,13
1324,0,0,0,-1,0,0,1,0,0,1,0,1,4
1325,0,0,0,1,0,0,1,0,0,0,0,1,10
1326,0,0,0,1,0,0,1,0,0,0,0,1,10
1327,0,0,2,1,0,0,1,0,0,0,0,1,6
1328,0,0,4,-1,4,0,1,0,0,0,0,1,7
1329,0,0,0,-1,0,0,1,0,0,0,0,1,11
1330,0,0,0,0,0,0,1,0,0,0,0,1,1
1331,0,0,0,0,0,0,1,0,0,0,0,1,6
1332,0,0,0,-1,0,0,0,0,0,1,0,1,1
1333,0,0,0,-1,0,0,1,0,0,0,0,1,47
1334,0,0,0,0,0,0,1,0,0,0,0,1,4
1335,0,0,0,0,0,0,1,0,0,0,0,1,4
1336,0,0,0,-1,0,0,1,0,0,0,0,1,1
1337,0,0,3,-1,2,0,1,0,0,0,15,1,17
1338,0,0,0,-1,0,0,1,0,0,0,0,1,1
1339,0,0,0,-1,0,0,1,0,0,0,0,1,1
1340,0,0,0,0,0,0,1,0,0,0,0,1,1
1341,0,0,0,-1,0,0,1,0,0,1,0,1,3
1342,0,0,0,0,0,0,1,0,0,0,0,1,40
1343,0,0,2,-1,0,0,1,0,0,0,0,1,47
1344,0,0,0,0,0,0,1,0,0,0,0,1,82
1345,0,0,0,0,0,0,1,0,0,0,0,1,1
1346,0,0,0,2,0,0,1,0,0,0,0,1,1
1347,0,0,0,-1,0,0,1,0,0,0,0,1,2
1348,0,0,0,0,0,0,1,0,0,0,0,1,2
1349,0,0,0,0,0,0,1,0,0,1,0,1,2
1350,0,0,0,0,0,0,1,0,0,0,0,1,45
1351,0,0,0,1,0,0,1,0,0,0,0,1,3
1352,0,0,0,0,0,0,1,0,0,0,0,1,6
1353,0,0,0,0,0,0,1,0,0,0,0,1,3
1354,0,0,0,-1,0,0,1,0,0,0,0,1,6
1355,0,0,0,0,0,0,1,0,0,0,0,1,9
1356,0,0,0,-1,0,0,1,0,0,1,0,1,3
1357,0,0,0,-1,0,0,1,0,0,1,0,1,3
1358,0,0,0,0,0,0,1,0,0,0,0,1,7
1359,0,0,3,0,0,0,1,0,0,0,1,1,46
1360,0,0,0,0,0,0,1,0,0,0,0,1,1
1361,0,0,3,0,0,0,1,0,0,0,1,1,46
1362,0,0,3,0,0,0,1,0,0,0,1,1,46
1363,0,0,3,0,0,0,1,0,0,0,1,1,46
1364,0,0,0,0,0,0,1,0,0,0,0,1,10
1365,0,0,0,0,0,0,1,0,0,0,0,1,48
1366,0,0,0,0,0,0,1,0,0,0,0,1,12
1367,0,0,11,-1,11,0,1,1,0,0,5,1,29
1368,0,0,0,-1,0,0,1,0,0,0,0,1,3
1369,0,0,0,0,0,0,1,0,0,0,0,1,43
1370,0,0,0,0,0,0,1,0,0,0,0,1,1
1371,0,0,0,0,0,0,1,0,0,0,0,1,12
1372,0,0,0,-1,0,0,1,0,0,1,0,1,30
1373,0,0,0,0,0,0,1,0,0,0,0,1,4
1374,0,0,11,-1,11,0,1,1,0,0,5,1,29
1375,0,0,0,0,0,0,1,0,0,0,0,1,1
1376,0,0,0,1,0,0,1,1,0,1,0,1,8
1377,0,0,0,-1,0,0,1,0,0,1,0,1,3
1378,0,0,0,-1,0,0,1,0,0,1,0,1,1
1379,0,0,0,1,0,0,1,1,0,1,0,1,8
1380,0,0,3,0,0,0,1,0,0,0,1,1,46
1381,0,0,0,0,0,0,1,0,0,0,0,1,12
1382,0,0,3,0,0,0,1,0,0,0,1,1,46
1383,0,0,0,0,0,0,1,0,0,1,0,1,50
1384,0,0,0,-1,0,0,1,0,0,1,0,1,3
1385,0,0,0,0,0,0,1,0,0,0,0,1,3
1386,0,0,0,-1,0,0,1,0,0,0,0,1,6
1387,0,0,0,0,0,0,1,0,0,1,5,1,32
1388,0,0,0,0,0,0,1,0,0,0,0,1,10
1389,0,0,0,-1,0,0,1,0,0,1,0,1,3
1390,0,0,0,0,0,0,1,0,0,0,0,1,1
1391,0,0,0,-1,0,0,1,0,0,0,0,1,22
1392,0,0,0,0,0,0,1,0,0,0,0,1,1
1393,0,0,0,0,0,0,1,0,0,0,0,1,1
1394,0,0,0,-1,0,0,1,0,0,1,0,1,3
1395,0,0,0,0,0,0,1,0,0,0,0,1,50
1396,0,0,2,0,0,0,1,0,0,0,0,1,15
1397,0,0,3,0,0,0,1,0,0,0,16,1,17
1398,0,0,0,0,0,0,1,0,0,0,0,1,1
1399,0,0,2,0,0,0,1,0,0,0,0,1,15
1400,0,0,0,0,0,0,1,0,0,0,0,1,1
1401,0,0,0,0,0,0,1,0,0,0,0,1,1
1402,0,0,0,0,0,0,1,0,0,0,0,1,15
1403,0,0,0,0,0,0,1,0,0,0,0,1,15
1404,0,0,0,-1,0,0,1,0,0,0,0,1,1
1405,0,0,0,-1,0,0,1,0,0,0,0,1,17
1406,0,0,0,2,0,0,1,0,0,0,0,1,6
1407,0,0,0,1,0,0,1,0,0,0,0,1,4
1408,0,0,0,0,0,0,1,0,0,0,0,1,3
1409,0,0,0,0,0,0,1,0,0,1,0,1,18
1410,0,0,0,-1,0,0,1,0,0,0,0,1,47
1411,0,0,0,-1,0,0,1,0,0,0,0,1,47
1412,0,0,0,-1,0,0,1,0,0,0,0,1,5
1413,0,0,0,0,0,0,1,0,0,0,0,1,1
1414,0,0,0,0,0,0,0,0,0,0,0,1,1
1415,0,0,0,1,0,0,1,1,0,0,0,1,3
1416,0,0,0,0,0,0,1,0,0,0,0,1,3
1417,0,0,0,0,0,0,1,0,0,0,0,1,1
1418,0,0,0,0,0,0,1,0,0,0,0,1,5
1419,0,0,0,-1,0,0,1,0,0,0,0,1,9
1420,0,0,0,-1,0,0,1,0,0,0,0,1,8
1421,0,0,0,0,0,0,1,0,0,0,0,1,2
1422,0,0,0,0,0,0,1,0,0,0,0,1,4
1423,0,0,0,-1,0,0,1,0,0,1,0,1,2
1424,0,0,0,0,0,0,0,0,0,0,0,1,1
1425,0,0,0,0,0,0,1,0,0,1,0,1,3
1426,0,0,0,0,0,0,1,0,0,0,0,1,4
1427,0,0,0,-1,0,0,1,0,0,0,0,1,42
1428,0,0,0,0,0,0,1,0,0,0,0,1,1
1429,0,0,0,0,0,0,1,0,0,0,0,1,1
1430,0,0,0,-1,0,0,1,0,0,0,0,1,7
1431,0,0,0,-1,0,0,1,0,0,1,0,1,2
1432,0,0,0,-1,0,0,1,0,0,0,0,1,8
1433,0,0,0,-1,0,0,1,0,0,0,0,1,47
1434,0,0,0,0,0,0,1,0,0,0,0,1,5
1435,0,0,0,0,0,0,1,0,0,0,0,1,3
1436,0,0,0,0,0,0,1,0,0,0,0,1,3
1437,0,0,0,-1,0,0,1,0,0,0,0,1,47
1438,0,0,0,0,0,0,1,0,1,0,0,1,6
1439,0,0,0,-1,0,0,1,0,0,1,0,1,2
1440,0,0,0,-1,0,0,1,0,0,1,0,1,27
1441,0,0,0,0,0,0,1,0,0,0,0,1,3
1442,0,0,0,0,0,0,1,0,0,0,0,1,40
1443,0,0,0,0,0,0,1,0,0,0,0,1,40
1444,0,0,0,-1,0,0,1,0,0,1,0,1,3
1445,0,0,0,0,0,0,1,0,0,0,0,1,3
1446,0,0,0,0,0,0,1,0,0,0,0,1,3
1447,0,0,0,0,0,0,1,0,0,0,0,1,16
1448,0,0,0,0,0,0,1,0,0,1,5,1,32
1449,0,0,0,0,0,0,1,0,0,0,0,1,3
1450,0,0,0,0,0,0,1,0,0,0,0,1,3
1451,0,0,0,-1,0,0,1,0,0,0,0,1,47
1452,0,0,0,0,0,0,1,0,0,0,0,1,1
1453,0,0,0,-1,0,0,1,0,0,0,0,1,6
1454,0,0,0,0,0,0,1,0,0,0,0,1,1
1455,0,0,0,0,0,0,1,0,0,1,0,1,2
1456,0,0,0,-1,0,0,1,0,0,0,0,1,6
1457,0,0,0,-1,0,0,1,0,0,1,0,1,12
1458,0,0,0,-1,0,0,1,0,0,0,0,1,47
1459,0,0,0,0,0,0,1,0,0,0,0,1,1
1460,0,0,0,-1,0,0,1,0,0,0,0,1,3
1461,0,0,0,0,0,0,1,0,0,0,0,1,1
1462,0,0,0,-1,0,0,1,0,0,0,0,1,2
1463,0,0,0,0,0,0,1,0,0,0,0,1,0
1464,0,0,0,-1,0,0,1,0,0,1,0,1,3
1465,0,0,0,0,0,0,1,0,0,1,0,1,2
1466,0,0,0,0,0,0,1,0,0,1,0,1,2
1467,0,0,0,0,0,0,1,0,0,0,0,1,10
1468,0,0,0,-1,0,0,1,0,0,0,0,1,12
1469,0,0,0,-1,0,0,1,0,0,1,0,1,3
1470,0,0,0,-1,0,0,1,0,0,0,0,1,47
1471,0,0,0,-1,0,0,1,0,0,0,0,1,47
1472,0,0,0,0,0,0,1,0,0,0,0,1,4
1473,0,0,0,-1,0,0,1,0,0,1,0,1,2
1474,0,0,0,0,0,0,1,0,0,0,0,1,3
1475,0,0,0,0,0,0,1,0,0,1,0,1,10
1476,0,0,0,-1,0,0,1,0,0,0,0,1,71
1477,0,0,0,-1,0,0,1,0,0,0,0,1,47
1478,0,0,0,-1,0,0,1,0,0,0,0,1,47
1479,0,0,0,0,0,0,1,0,0,0,0,1,1
1480,0,0,0,0,0,0,1,0,0,0,0,1,1
1481,0,0,0,-1,0,0,1,0,0,1,0,1,2
1482,0,0,0,-1,0,0,1,0,0,1,0,1,6
1483,0,0,0,0,0,0,1,0,0,0,0,1,4
1484,0,0,0,0,0,0,1,0,0,1,0,1,3
1485,0,0,0,0,0,0,1,0,0,0,0,1,8
1486,0,0,0,-1,0,0,1,0,0,0,0,1,11
1487,0,0,0,0,0,0,1,0,0,1,0,1,13
1488,0,0,0,-1,0,0,1,0,0,0,0,1,11
1489,0,0,0,-1,0,0,1,0,0,0,0,1,6
1490,0,0,0,2,0,0,1,0,0,0,0,1,1
1491,0,0,0,0,0,0,1,0,0,0,0,1,3
1492,0,0,0,-1,0,0,1,0,0,0,0,1,6
1493,0,0,0,0,0,0,1,0,0,0,0,1,0
1494,0,0,0,0,0,0,1,0,0,0,0,1,3
1495,0,0,0,-1,0,0,1,0,0,0,0,1,47
1496,0,0,1,1,0,0,1,0,0,0,0,1,10
1497,0,0,0,2,0,0,1,0,0,0,0,1,1
1498,0,0,0,-1,0,0,1,0,0,0,0,1,47
1499,0,0,0,0,0,0,1,0,0,0,0,1,2
1500,0,0,0,-1,0,0,1,0,0,0,0,1,2
1501,0,0,0,0,0,0,1,0,0,0,0,1,3
1502,0,0,0,-1,0,0,1,0,0,0,0,1,6
1503,0,0,0,1,0,0,1,0,0,0,0,1,13
1504,0,0,0,0,0,0,1,0,0,0,0,1,2
1505,0,0,0,-1,0,0,1,0,0,0,0,1,47
1506,0,0,0,0,0,0,1,0,0,1,0,1,6
1507,0,0,0,-1,0,0,1,0,0,1,0,1,1
1508,0,0,0,-1,0,0,1,0,0,0,0,1,2
1509,0,0,0,-1,0,0,1,0,0,0,0,1,5
1510,0,0,0,-1,0,0,1,0,0,0,0,1,5
1511,0,0,0,-1,0,0,1,0,0,0,0,1,4
1512,0,0,1,1,0,0,1,0,0,0,0,1,10
1513,0,0,0,-1,0,0,1,0,0,0,0,1,4
1514,0,0,0,0,0,0,1,0,0,1,0,1,33
1515,0,0,0,0,0,0,1,0,0,1,0,1,3
1516,0,0,0,-1,0,0,1,0,0,1,0,1,27
1517,0,0,0,-2,0,0,1,0,0,1,0,1,3
1518,0,0,0,0,0,0,1,0,0,0,0,1,2
1519,0,0,0,-1,0,0,1,0,0,0,0,1,26
1520,0,0,0,0,0,0,1,0,0,0,0,1,1
1521,0,0,0,-1,0,0,1,0,0,1,0,1,12
1522,0,0,0,-1,0,0,1,0,0,0,0,1,3
1523,0,0,0,2,0,0,1,0,0,0,0,1,1
1524,0,0,0,0,0,0,1,0,0,0,0,1,1
1525,0,0,0,2,0,0,1,0,0,0,0,1,1
1526,0,0,0,-1,0,0,1,0,0,1,0,1,3
1527,0,0,0,0,0,0,1,0,0,0,0,1,4
1528,0,0,0,-1,0,0,1,0,0,0,0,1,11
1529,0,0,0,-1,0,0,1,0,0,0,0,1,4
1530,0,0,0,-1,0,0,1,0,0,0,0,1,44
1531,0,0,0,0,0,0,1,0,0,0,0,1,2
1532,0,0,0,-1,0,0,1,0,0,0,0,1,2
1533,0,0,0,-1,0,0,1,0,0,0,0,1,3
1534,0,0,0,0,0,0,1,0,0,0,0,1,2
1535,0,0,0,-1,0,0,1,0,0,1,0,1,5
1536,0,0,0,-1,0,0,1,0,0,0,0,1,75
1537,0,0,0,-1,0,0,1,0,0,1,0,1,5
1538,0,0,0,0,0,0,1,0,0,1,0,1,9
1539,0,0,0,0,0,0,1,0,0,1,0,1,13
1540,0,0,1,-1,1,0,1,1,0,0,0,1,78
1541,0,0,1,-1,1,0,1,1,0,0,0,1,78
1542,0,0,0,0,0,0,1,0,0,0,0,1,0
1543,0,0,0,-1,0,0,1,0,0,0,0,1,4
1544,0,0,0,-1,0,0,1,0,0,0,0,1,4
1545,0,0,0,-1,0,0,1,0,0,0,0,1,4
1546,0,0,0,0,0,0,1,0,0,1,0,1,2
1547,0,0,0,0,0,0,1,0,0,0,0,1,2
1548,0,0,0,-1,0,0,1,0,0,0,0,1,4
1549,0,0,0,0,0,0,1,0,0,0,0,1,2
1550,0,0,0,0,0,0,1,0,0,1,0,1,2
1551,0,2,0,0,0,0,1,0,0,0,0,1,2
1552,0,0,0,0,0,0,1,0,0,1,0,1,44
1553,0,0,0,-1,0,0,1,0,0,1,0,1,14
1554,0,0,0,0,0,0,1,0,0,0,0,1,6
1555,0,0,0,0,0,0,1,0,0,0,0,1,1
1556,0,0,0,0,0,0,1,0,0,0,0,1,2
1557,0,0,0,-1,0,0,1,0,0,0,0,1,5
1558,0,0,0,0,0,0,1,0,0,0,0,1,4
1559,0,0,0,-1,0,0,1,0,0,0,0,1,3
1560,0,0,0,-1,0,0,1,0,0,1,0,1,3
1561,0,0,0,-1,0,0,1,0,0,0,0,1,10
1562,0,0,0,0,0,0,1,0,0,0,0,1,2
1563,0,0,0,-1,0,0,1,0,0,1,0,1,2
1564,0,0,0,0,0,0,1,0,0,0,0,1,1
1565,0,0,0,-1,0,0,1,0,0,1,0,1,60
1566,0,0,0,-1,0,0,1,0,0,0,0,1,10
1567,0,0,0,-1,0,0,0,0,0,1,0,1,1
1568,0,0,0,-1,0,0,1,0,0,1,0,1,3
1569,0,0,0,0,0,0,1,0,0,0,0,1,0
1570,0,0,0,0,0,0,1,0,0,0,0,1,10
1571,0,0,0,-1,0,0,1,0,0,1,0,1,3
1572,0,0,0,-1,0,0,1,0,0,0,0,1,47
1573,0,0,0,0,0,0,1,0,0,0,0,1,1
1574,0,0,0,0,0,0,1,0,0,1,0,1,9
1575,0,0,0,-1,0,0,1,0,0,0,0,1,47
1576,0,0,0,0,0,0,1,0,0,0,0,1,0
1577,0,0,0,0,0,0,1,0,0,1,0,1,9
1578,0,0,0,0,0,0,1,0,0,0,0,1,3
1579,0,0,2,-1,2,0,1,0,0,1,12,1,43
1580,0,0,0,0,0,0,1,0,0,1,0,1,9
1581,0,0,0,0,0,0,1,0,0,1,0,1,9
1582,0,0,0,-1,0,0,1,0,0,0,0,1,10
1583,0,0,0,-1,0,0,1,0,0,1,0,1,3
1584,0,0,0,-1,0,0,1,0,0,0,0,1,6
1585,0,0,0,-1,0,0,1,0,0,0,0,1,6
1586,0,0,0,0,0,0,0,0,0,0,0,1,1
1587,0,0,0,-1,0,0,1,0,0,0,0,1,25
1588,0,0,0,0,0,0,1,0,0,1,0,1,43
1589,0,0,0,0,0,0,1,0,0,0,0,1,5
1590,0,0,0,-1,0,0,1,0,0,0,0,1,6
1591,0,0,0,-1,0,0,0,0,0,1,0,1,1
1592,0,0,2,-1,2,0,1,0,0,0,5,1,47
1593,0,0,0,-1,0,0,1,0,0,0,0,1,47
1594,0,0,0,0,0,0,1,0,0,0,0,1,4
1595,0,0,0,-1,0,0,1,0,0,0,0,1,55
1596,0,0,2,-1,1,0,1,0,0,0,1,1,6
1597,0,0,0,0,0,0,1,0,0,0,0,1,2
1598,0,0,0,-1,0,0,1,0,0,0,0,1,8
1599,0,0,0,-1,0,0,1,0,0,0,0,1,14
1600,0,0,0,0,0,0,1,0,0,0,0,1,2
1601,0,0,0,0,0,0,1,0,0,0,0,1,1
1602,0,0,0,0,0,0,1,0,0,0,0,1,2
1603,0,0,0,-1,0,0,1,0,0,0,0,1,47
1604,0,0,0,0,0,0,1,0,0,0,0,1,2
1605,0,0,0,0,0,0,1,0,0,0,0,1,2
1606,0,0,0,-1,0,0,1,0,0,0,0,1,47
1607,0,0,0,-1,0,0,1,0,0,0,0,1,47
1608,0,0,0,0,0,0,1,0,0,0,0,1,2
1609,0,0,0,0,0,0,1,0,0,0,0,1,1
1610,0,0,0,-1,0,0,1,0,0,0,0,1,3
1611,0,0,0,-1,0,0,1,0,0,0,0,1,8
1612,0,0,0,0,0,0,1,0,0,0,0,1,1
1613,0,0,0,0,0,0,1,0,0,1,0,1,2
1614,0,0,0,-1,0,0,1,0,0,0,0,1,14
1615,0,0,0,-1,0,0,1,0,0,1,0,1,1
1616,0,0,2,-1,2,0,1,0,0,1,12,1,43
1617,0,0,2,-1,2,0,1,0,0,1,12,1,43
1618,0,0,0,-1,0,0,1,0,0,0,0,1,4
1619,0,0,0,-1,0,0,1,0,0,0,0,1,41
1620,0,0,0,1,0,0,1,0,0,0,0,1,3
1621,0,0,0,1,0,0,1,0,0,0,0,1,3
1622,0,0,0,-1,0,0,1,0,0,1,0,1,3
1623,0,0,0,0,0,0,1,0,0,0,0,1,1
1624,0,0,0,0,0,0,1,0,0,0,0,1,2
1625,0,0,2,0,0,0,1,0,0,0,0,1,15
1626,0,0,3,0,0,0,1,0,0,0,1,1,46
1627,0,0,0,0,0,0,1,0,0,0,0,1,1
1628,0,0,0,-1,0,0,1,0,0,0,0,1,4
1629,0,0,0,-1,0,0,1,0,0,1,0,1,1
1630,0,0,0,0,0,0,1,0,0,0,0,1,5
1631,0,0,0,0,0,0,1,0,0,1,0,1,2
1632,0,0,0,0,0,0,1,0,0,1,0,1,3
1633,0,0,0,0,0,0,1,0,0,1,0,1,3
1634,0,0,0,0,0,0,1,0,0,0,0,1,1
1635,0,0,0,0,0,0,1,0,0,0,0,1,1
1636,0,0,1,0,1,0,1,1,0,0,0,1,83
1637,0,0,0,-1,0,0,1,0,0,0,0,1,47
1638,0,0,0,0,0,0,1,0,0,1,0,1,2
1639,0,0,0,0,0,0,1,0,0,1,0,1,2
1640,0,0,0,0,0,0,1,0,0,0,0,1,1
1641,0,0,1,1,0,0,1,0,0,0,10,1,11
1642,0,0,0,0,0,0,1,0,0,1,0,1,9
1643,0,0,1,1,0,0,1,0,0,0,10,1,11
1644,0,0,0,0,0,0,1,0,0,0,0,1,1
1645,0,0,0,0,0,0,1,0,0,1,0,1,9
1646,0,0,0,1,0,0,1,0,0,0,0,1,3
1647,0,0,0,1,0,0,1,0,0,0,0,1,3
1648,0,0,0,1,0,0,1,0,0,0,0,1,2
1649,0,0,0,-1,0,0,1,0,0,0,0,1,15
1650,0,0,0,-1,0,0,1,0,0,0,0,1,11
1651,0,0,0,-1,0,0,0,0,0,0,0,1,1
1652,0,0,0,-1,0,0,1,0,0,0,0,1,7
1653,0,0,0,0,0,0,1,0,0,0,0,1,19
1654,0,0,0,-1,0,0,1,0,0,0,0,1,46
1655,0,0,0,-1,0,0,1,0,0,1,0,1,14
1656,0,0,0,-1,0,0,1,1,0,1,0,1,2
1657,0,0,0,-1,0,0,1,1,0,0,0,1,2
1658,0,0,0,-1,0,0,1,0,0,1,0,1,3
1659,0,0,0,0,0,0,1,0,0,1,0,1,6
1660,0,0,0,-1,0,0,1,0,0,1,0,1,14
1661,0,0,0,-1,0,0,1,0,0,1,0,1,3
1662,0,0,0,-1,0,0,1,1,0,0,0,1,2
1663,0,0,0,-1,0,0,1,0,0,1,0,1,3
1664,0,0,0,0,0,0,1,0,0,0,0,1,47
1665,0,0,0,-1,0,0,1,0,0,0,0,1,6
1666,0,0,0,1,0,0,1,0,0,0,0,1,3
1667,0,0,0,0,0,0,1,0,0,0,0,1,1
1668,0,0,0,0,0,0,1,0,0,0,0,1,42
1669,0,0,0,-1,0,0,1,0,0,1,0,1,18
1670,0,0,0,0,0,0,1,0,0,0,0,1,9
1671,0,0,0,0,0,0,1,0,0,0,0,1,42
1672,0,0,0,-1,0,0,1,0,0,0,0,1,2
1673,0,0,0,0,0,0,1,0,0,0,0,1,1
1674,0,0,0,0,0,0,1,1,0,0,0,1,7
1675,0,0,0,0,0,0,1,0,0,0,0,1,1
1676,0,0,0,-1,0,0,1,0,0,1,0,1,82
1677,0,0,0,0,0,0,1,0,0,0,0,1,1
1678,0,0,0,0,0,0,1,0,0,0,0,1,25
1679,0,0,0,-1,0,0,1,0,0,0,0,1,47
1680,0,0,0,-1,0,0,1,0,0,0,0,1,2
1681,0,0,0,-1,0,0,1,0,0,0,0,1,1
1682,0,0,0,0,0,0,1,0,0,1,0,1,21
1683,0,0,0,1,0,0,1,0,0,0,0,1,5
1684,0,0,0,1,0,0,1,1,0,0,1,1,6
1685,0,0,0,0,0,0,1,0,0,0,0,1,11
1686,0,0,0,0,0,0,1,0,0,0,0,1,3
1687,0,0,0,0,0,0,1,0,0,0,0,1,11
1688,0,0,0,0,0,0,1,0,0,0,0,1,11
1689,0,0,0,0,0,0,1,0,0,0,0,1,11
1690,0,0,0,0,0,0,1,0,0,0,0,1,1
1691,0,0,0,0,0,0,1,0,0,0,0,1,11
1692,0,0,0,1,0,0,1,1,0,0,1,1,6
1693,0,0,0,-1,0,0,1,0,0,0,0,1,5
1694,0,0,0,-1,0,0,1,0,0,0,0,1,28
1695,0,0,0,0,0,0,1,0,0,0,0,1,4
1696,0,0,0,-1,0,0,1,0,0,0,0,1,28
1697,0,0,0,-1,0,0,1,0,0,0,0,1,3
1698,0,0,0,-1,0,0,1,0,0,0,0,1,2
1699,0,0,0,-1,0,0,1,0,0,0,0,1,18
1700,0,0,0,1,0,0,1,0,0,0,0,1,2
1701,0,0,0,0,0,0,1,0,0,0,0,1,1
1702,0,0,0,1,0,0,1,0,0,0,0,1,2
1703,0,0,0,1,0,0,1,0,0,0,0,1,2
1704,0,0,0,-1,0,0,1,0,0,0,0,1,3
1705,0,0,0,-1,0,0,1,0,0,0,0,1,18
1706,0,0,0,-1,0,0,1,0,0,1,0,1,46
1707,0,0,0,0,0,0,1,0,0,0,0,1,1
1708,0,0,0,-1,0,0,1,0,0,0,0,1,18
1709,0,0,0,-1,0,0,1,0,0,0,0,1,28
1710,0,0,0,1,0,0,1,0,0,0,0,1,2
1711,0,0,0,1,0,0,1,0,0,0,0,1,2
1712,0,0,0,-1,0,0,1,0,0,0,0,1,28
1713,0,0,0,1,0,0,1,0,0,0,0,1,2
1714,0,0,0,1,0,0,1,0,0,0,0,1,2
1715,0,0,0,0,0,0,1,0,0,0,0,1,11
1716,0,0,0,0,0,0,1,0,0,0,0,1,11
1717,0,0,0,0,0,0,1,0,0,1,0,1,3
1718,0,0,0,0,0,0,1,0,0,1,0,1,3
1719,0,0,0,-1,0,0,1,0,0,0,0,1,4
1720,0,0,0,1,0,0,1,0,1,1,0,1,31
1721,0,0,0,-1,0,0,1,0,0,0,0,1,80
1722,0,0,0,0,0,0,1,0,0,0,0,1,1
1723,0,0,0,0,0,0,1,0,0,0,0,1,20
1724,0,0,0,0,0,0,1,0,0,0,0,1,1
1725,0,0,0,-1,0,0,1,0,0,0,0,1,18
1726,0,0,0,-1,0,0,1,0,0,0,0,1,46
1727,0,0,0,-1,0,0,1,0,0,0,0,1,46
1728,0,0,0,0,0,0,1,0,0,0,0,1,2
1729,0,0,0,-1,0,0,1,0,0,0,0,1,80
1730,0,0,0,-1,0,0,1,0,0,0,0,1,1
1731,0,0,0,-1,0,0,1,0,0,1,0,1,3
1732,0,0,0,-1,0,0,1,0,0,0,0,1,80
1733,0,0,0,-1,0,0,1,0,0,0,0,1,48
1734,0,0,0,1,0,0,1,0,0,0,0,1,2
1735,0,0,0,-1,0,0,1,0,0,0,0,1,18
1736,0,0,0,0,0,0,1,0,0,0,0,1,11
1737,0,0,0,-1,0,0,1,0,0,0,0,1,11
1738,0,0,0,0,0,0,1,0,0,0,0,1,11
1739,0,0,0,0,0,0,1,0,0,0,0,1,1
1740,0,0,0,0,0,0,1,0,0,0,0,1,11
1741,0,0,0,0,0,0,1,0,0,0,0,1,8
1742,0,0,0,0,0,0,1,0,0,0,0,1,11
1743,0,0,0,-1,0,0,1,0,0,0,0,1,80
1744,0,0,0,-1,0,0,1,0,0,0,0,1,11
1745,0,0,0,-1,0,0,1,0,0,0,0,1,4
1746,0,0,0,0,0,0,1,0,0,0,0,1,34
1747,0,0,0,-1,0,0,1,0,0,0,0,1,2
1748,0,0,0,0,0,0,1,0,0,0,0,1,1
1749,0,0,0,0,0,0,1,0,0,0,0,1,1
1750,0,0,0,0,0,0,1,0,0,0,0,1,1
1751,0,0,1,-1,1,0,1,1,0,0,5,1,11
1752,0,0,0,0,0,0,1,0,0,0,8,1,9
1753,0,0,0,0,0,0,1,0,0,0,0,1,2
1754,0,0,0,0,0,0,1,0,0,0,0,1,1
1755,0,0,0,0,0,0,1,0,0,0,0,1,1
1756,0,0,0,0,0,0,1,0,0,0,0,1,3
1757,0,0,0,-1,0,0,1,0,0,0,0,1,17
1758,0,0,0,-1,0,0,1,0,0,0,0,1,3
1759,0,0,1,-1,1,0,1,1,0,1,5,1,11
1760,0,0,0,0,0,0,1,0,0,0,0,1,1
1761,0,0,0,0,0,0,1,0,0,0,0,1,1
1762,0,0,0,-1,0,0,1,0,0,0,0,1,10
1763,0,0,0,-1,0,0,1,0,0,0,0,1,2
1764,0,0,0,0,0,0,1,0,0,0,0,1,1
1765,0,0,0,0,0,0,1,0,0,0,0,1,10
1766,0,0,0,-1,0,0,1,0,0,0,0,1,2
1767,0,0,0,0,0,0,1,0,0,1,0,1,60
1768,0,0,0,-1,0,0,1,0,0,0,0,1,2
1769,0,0,0,0,0,0,1,0,0,0,0,1,1
1770,0,0,0,-1,0,0,1,0,0,1,0,1,3
1771,0,0,0,-1,0,0,1,0,0,0,0,1,2
1772,0,0,0,0,0,0,1,0,0,0,1,1,47
1773,0,0,0,0,0,0,1,0,0,0,0,1,1
1774,0,0,0,1,0,0,0,0,0,0,0,1,1
1775,0,0,0,1,0,0,0,0,0,0,0,1,1
1776,0,0,0,-1,0,0,1,0,0,0,0,1,2
1777,0,0,0,-1,0,0,1,0,0,0,0,1,2
1778,0,1,0,0,0,0,0,0,0,0,0,1,0
1779,0,0,0,0,0,0,1,0,0,1,0,1,3
1780,0,0,0,-1,0,0,1,0,0,0,0,1,4
1781,0,0,0,0,0,0,1,0,0,0,0,1,1
1782,0,0,0,-1,0,0,0,0,0,0,0,1,1
1783,0,0,0,0,0,0,1,0,0,0,0,1,1
1784,0,0,0,0,0,0,1,0,0,1,0,1,3
1785,0,0,0,-1,0,0,1,0,0,1,0,1,2
1786,0,0,7,-1,7,0,1,1,0,0,1,1,25
1787,0,0,0,-1,0,0,1,0,0,0,0,1,60
1788,0,0,0,-1,0,0,1,0,0,0,0,1,2
1789,0,0,0,-1,0,0,1,0,0,0,0,1,6
1790,0,0,0,0,0,0,1,0,0,0,0,1,0
1791,0,0,0,0,0,0,1,0,0,0,0,1,0
1792,0,0,0,0,0,0,1,0,0,1,0,1,69
1793,0,0,0,0,0,0,1,0,0,0,0,1,0
1794,0,0,0,-1,0,0,1,0,0,0,0,1,46
1795,0,0,0,0,0,0,1,0,0,0,0,1,1
1796,0,0,1,-2,0,0,1,0,0,0,0,1,2
1797,0,0,0,-1,0,0,1,0,0,1,0,1,5
1798,0,0,0,0,0,0,1,0,0,0,0,1,1
1799,0,0,0,-1,0,0,1,0,0,0,0,1,17
1800,0,0,0,0,0,0,1,0,0,0,0,1,3
1801,0,0,0,-1,0,0,1,0,0,1,0,1,4
1802,0,0,0,-1,0,0,1,0,0,0,0,1,3
1803,0,0,0,-1,0,0,1,0,0,1,0,1,4
1804,0,0,0,0,0,0,1,0,0,1,0,1,3
1805,0,0,0,0,0,0,1,0,0,1,0,1,2
1806,0,0,0,0,0,0,1,0,0,0,0,1,2
1807,0,0,0,-1,0,0,1,0,0,1,0,1,3
1808,0,0,0,0,0,0,1,0,0,0,0,1,3
1809,0,0,0,0,0,0,1,0,0,0,0,1,3
1810,0,0,0,-1,0,0,1,0,0,0,0,1,20
1811,0,0,0,-1,0,0,1,0,0,0,0,1,28
1812,0,0,0,0,0,0,1,0,0,0,0,1,1
1813,0,0,2,-1,2,0,1,0,0,0,0,1,11
1814,0,0,2,-1,2,0,1,0,0,0,0,1,11
1815,0,0,0,-1,0,0,1,0,0,0,0,1,6
1816,0,0,0,0,0,0,1,0,0,0,0,1,2
1817,0,0,0,0,0,0,1,0,0,0,0,1,29
1818,0,0,0,0,0,0,1,0,0,0,0,1,2
1819,0,0,0,-1,0,0,1,0,0,0,0,1,28
1820,0,0,0,0,0,0,1,0,0,0,0,1,11
1821,0,0,0,0,0,0,1,0,0,0,0,1,11
1822,0,0,0,0,0,0,1,0,0,0,0,1,11
1823,0,0,0,0,0,0,1,0,0,0,0,1,11
1824,0,0,0,-1,0,0,1,0,0,0,0,1,2
1825,0,0,0,-1,0,0,1,0,0,0,0,1,10
1826,0,0,0,0,0,0,1,0,0,0,0,1,1
1827,0,0,0,0,0,0,1,0,0,0,0,1,2
1828,0,0,0,-1,0,0,1,0,0,0,0,1,35
1829,0,0,0,-1,0,0,1,0,0,0,0,1,35
1830,0,0,0,1,0,0,1,0,0,0,0,1,3
1831,0,0,0,-1,0,0,1,0,0,0,0,1,46
1832,0,0,0,0,0,0,1,0,0,0,0,1,6
1833,0,0,0,0,0,0,1,0,0,0,0,1,3
1834,0,0,0,0,0,0,1,0,0,0,0,1,7
1835,0,0,0,-1,0,0,1,0,0,0,0,1,20
1836,0,0,0,0,0,0,1,0,0,0,0,1,1
1837,0,0,0,0,0,0,1,0,0,0,0,1,14
1838,0,0,0,-1,0,0,0,0,0,0,0,1,0
1839,0,0,0,-1,0,0,1,0,0,0,0,1,46
1840,0,0,0,0,0,0,1,0,0,0,0,1,2
1841,0,0,0,-1,0,0,1,0,0,0,0,1,10
1842,0,0,0,0,0,0,1,0,0,0,0,1,1
1843,0,0,0,0,0,0,1,0,0,0,0,1,1
1844,0,0,0,-1,0,0,1,0,0,0,0,1,2
1845,0,0,0,-1,0,0,1,0,0,1,0,1,26
1846,0,0,0,-1,0,0,1,0,0,0,0,1,46
1847,0,0,0,-1,0,0,1,0,0,1,0,1,4
1848,0,0,0,0,0,0,1,0,0,0,0,1,4
1849,0,0,0,0,0,0,1,0,0,0,0,1,1
1850,0,0,0,-1,0,0,1,0,0,1,0,1,26
1851,0,0,0,0,0,0,1,0,0,0,0,1,33
1852,0,0,0,-1,0,0,1,0,0,0,0,1,47
1853,0,0,0,-1,0,0,1,0,0,0,0,1,2
1854,0,0,0,0,0,0,1,0,0,1,0,1,7
1855,0,0,0,0,0,0,1,0,0,0,1,1,46
1856,0,0,0,0,0,0,1,0,0,0,0,1,5
1857,0,0,0,0,0,0,1,0,0,1,0,1,7
1858,0,0,0,-1,0,0,1,0,0,0,0,1,6
1859,0,0,0,0,0,0,1,0,0,0,0,1,5
1860,0,0,0,0,0,0,1,0,0,0,0,1,3
1861,0,0,0,-1,0,0,1,0,0,0,0,1,22
1862,0,0,0,-1,0,0,1,0,0,0,0,1,46
1863,0,0,0,-1,0,0,1,0,0,0,0,1,14
1864,0,0,0,-1,0,0,1,0,0,1,0,1,47
1865,0,0,0,0,0,0,1,0,0,0,0,1,2
1866,0,0,0,0,0,0,1,0,0,0,0,1,5
1867,0,0,0,0,0,0,1,0,0,0,0,1,5
1868,0,0,0,0,0,0,1,0,0,0,0,1,1
1869,0,0,0,-1,0,0,1,0,0,0,0,1,2
1870,0,0,0,0,0,0,1,0,0,0,0,1,3
1871,0,0,0,0,0,0,1,0,0,0,0,1,5
1872,0,0,2,0,0,0,1,0,0,0,0,1,11
1873,0,0,2,0,0,0,1,0,0,0,0,1,11
1874,0,0,2,0,0,0,1,0,0,0,0,1,11
1875,0,0,2,0,0,0,1,0,0,0,0,1,11
1876,0,0,0,0,0,0,1,0,0,0,0,1,3
1877,0,0,0,0,0,0,1,0,0,0,0,1,42
1878,0,0,0,0,0,0,1,0,0,0,0,1,1
1879,0,0,0,0,0,0,1,0,0,0,0,1,25
1880,0,0,0,-1,0,0,1,0,0,0,0,1,2
1881,0,0,0,-1,0,0,1,0,0,0,0,1,4
1882,0,0,0,0,0,0,1,0,0,0,0,1,1
1883,0,0,0,-1,0,0,1,0,0,0,0,1,2
1884,0,0,0,0,0,0,1,0,0,0,0,1,2
1885,0,0,0,-1,0,0,1,0,0,0,0,1,2
1886,0,0,0,0,0,0,1,0,0,0,0,1,5
1887,0,0,0,-1,0,0,1,0,0,1,0,1,2
1888,0,0,0,-1,0,0,1,0,0,0,0,1,3
1889,0,0,0,0,0,0,1,0,0,0,0,1,9
1890,0,0,0,-1,0,0,1,0,0,0,0,1,2
1891,0,0,0,-1,0,0,1,0,0,1,0,1,47
1892,0,0,0,-1,0,0,1,0,0,0,0,1,46
1893,0,0,0,0,0,0,1,0,0,0,0,1,4
1894,0,0,0,0,0,0,1,0,0,0,0,1,3
1895,0,0,0,-1,0,0,1,0,0,1,0,1,4
1896,0,0,0,0,0,0,1,0,0,0,0,1,2
1897,0,0,0,-1,0,0,1,0,0,0,0,1,46
1898,0,0,0,-1,0,0,1,0,0,0,0,1,46
1899,0,0,0,0,0,0,1,0,0,0,0,1,13
1900,0,0,0,-1,0,0,1,0,0,0,0,1,7
1901,0,0,0,-1,0,0,1,0,0,0,0,1,2
1902,0,0,0,0,0,0,1,0,0,1,0,1,4
1903,0,0,0,0,0,0,1,0,0,0,0,1,9
1904,0,0,0,0,0,0,1,0,0,0,0,1,9
1905,0,0,0,0,0,0,1,0,0,0,0,1,2
1906,0,0,0,0,0,0,1,0,0,0,0,1,5
1907,0,0,0,-1,0,0,1,0,0,1,0,1,47
1908,0,0,0,-1,0,0,1,0,0,0,0,1,2
1909,0,0,0,0,0,0,1,0,0,0,0,1,25
1910,0,0,0,-1,0,0,1,0,0,0,0,1,2
1911,0,0,0,0,0,0,1,0,0,0,0,1,3
1912,0,0,0,0,0,0,1,0,0,0,0,1,3
1913,0,0,0,-1,0,0,1,0,0,0,0,1,46
1914,0,0,0,-1,0,0,1,0,0,1,0,1,4
1915,0,0,0,-1,0,0,1,0,0,0,0,1,37
1916,0,0,0,-1,0,0,1,0,0,0,0,1,37
1917,0,0,0,0,0,0,1,0,0,0,0,1,5
1918,0,0,0,-1,0,0,1,0,0,0,0,1,46
1919,0,0,0,-1,0,0,1,0,0,0,0,1,47
1920,0,0,0,-1,0,0,1,0,0,0,0,1,47
1921,0,0,0,0,0,0,1,0,0,0,0,1,63
1922,0,0,0,0,0,0,1,0,0,0,0,1,2
1923,0,0,0,-1,0,0,1,0,0,1,0,1,26
1924,0,0,0,0,0,0,1,0,0,0,0,1,2
1925,0,0,0,-1,0,0,1,0,0,0,0,1,8
1926,0,0,0,0,0,0,1,0,0,0,0,1,5
1927,0,0,0,-1,0,0,1,0,0,1,0,1,47
1928,0,0,0,0,0,0,1,0,0,0,0,1,11
1929,0,0,0,-1,0,0,1,0,0,1,0,1,2
1930,0,0,0,-1,0,0,1,0,0,1,0,1,8
1931,0,0,0,0,0,0,1,0,0,0,0,1,2
1932,0,0,0,-1,0,0,1,0,0,1,0,1,18
1933,0,0,0,0,0,0,1,0,0,0,0,1,2
1934,0,0,0,-1,0,0,1,0,0,1,0,1,47
1935,0,0,0,-1,0,0,1,0,0,0,0,1,2
1936,0,0,0,0,0,0,1,0,0,0,0,1,2
1937,0,0,0,-1,0,0,1,0,0,1,0,1,47
1938,0,0,0,0,0,0,1,0,0,0,0,1,2
1939,0,0,0,-1,0,0,1,0,0,1,0,1,60
1940,0,0,0,-1,0,0,1,0,0,1,0,1,1
1941,0,0,0,-1,0,0,1,0,0,1,0,1,47
1942,0,0,0,-1,0,0,1,0,0,0,0,1,4
1943,0,0,0,-1,0,0,1,0,0,1,0,1,2
1944,0,0,0,-1,0,0,1,0,0,1,0,1,25
1945,0,0,0,0,0,0,1,0,0,0,0,1,2
1946,0,0,0,-1,0,0,1,0,0,1,0,1,8
1947,0,0,0,-1,0,0,1,0,0,1,0,1,2
1948,0,0,0,0,0,0,1,0,0,0,0,1,5
1949,0,0,0,0,0,0,1,0,0,0,0,1,2
1950,0,0,0,-1,0,0,1,0,0,1,0,1,2
1951,0,0,0,-1,0,0,1,0,0,0,0,1,4
1952,0,0,0,-1,0,0,1,0,0,1,0,1,6
1953,0,0,0,0,0,0,1,0,0,0,0,1,2
1954,0,0,0,0,0,0,1,0,0,0,1,1,7
1955,0,0,0,-1,0,0,1,0,0,0,0,1,3
1956,0,0,0,-1,0,0,1,0,0,1,0,1,2
1957,0,0,0,0,0,0,1,0,0,0,0,1,2
1958,0,0,0,-1,0,0,1,0,0,1,0,1,2
1959,0,0,0,-1,0,0,1,0,0,0,0,1,2
1960,0,0,0,-1,0,0,1,0,0,0,0,1,60
1961,0,0,0,-1,0,0,1,0,0,1,0,1,47
1962,0,0,0,-1,0,0,1,0,0,0,0,1,2
1963,0,0,0,-1,0,0,1,0,0,0,0,1,60
1964,0,0,0,0,0,0,1,0,0,0,0,1,2
1965,0,0,0,-1,0,0,1,0,0,0,0,1,18
1966,0,0,0,-1,0,0,1,0,0,0,0,1,2
1967,0,0,0,0,0,0,1,0,0,0,0,1,2
1968,0,0,0,-1,0,0,1,0,0,1,0,1,2
1969,0,0,0,-1,0,0,1,0,0,0,0,1,2
1970,0,0,0,-1,0,0,1,0,0,0,0,1,18
1971,0,0,0,-1,0,0,1,0,0,0,0,1,2
1972,0,0,0,-1,0,0,1,0,0,1,0,1,46
1973,0,0,0,-1,0,0,1,0,0,1,0,1,2
1974,0,0,0,-1,0,0,1,0,0,1,0,1,21
1975,0,0,0,0,0,0,1,0,0,0,0,1,29
1976,0,0,0,-1,0,0,1,0,0,0,0,1,46
1977,0,0,0,0,0,0,1,0,0,0,0,1,2
1978,0,0,0,-1,0,0,1,0,0,0,0,1,2
1979,0,0,0,0,0,0,1,0,0,0,0,1,2
1980,0,0,0,0,0,0,1,0,0,1,0,1,43
1981,0,0,0,0,0,0,1,0,0,0,0,1,3
1982,0,0,0,-1,0,0,1,0,0,1,0,1,41
1983,0,0,0,-1,0,0,1,0,0,0,0,1,5
1984,0,0,0,0,0,0,1,0,0,0,0,1,2
1985,0,0,0,-1,0,0,0,0,0,0,0,1,1
1986,0,0,0,0,0,0,1,0,0,0,0,1,2
1987,0,0,0,0,0,0,1,0,0,0,0,1,2
1988,0,0,0,-1,0,0,1,0,0,0,0,1,18
1989,0,0,0,-1,0,0,1,0,0,0,0,1,18
1990,0,0,0,-1,0,0,1,0,0,0,0,1,4
1991,0,0,0,-1,0,0,1,0,0,0,0,1,2
1992,0,0,0,-1,0,0,1,0,0,0,0,1,18
1993,0,0,0,-1,0,0,1,0,0,0,0,1,18
1994,0,0,0,0,0,0,1,0,0,0,0,1,2
1995,0,0,0,-1,0,0,1,0,0,1,0,1,18
1996,0,0,0,0,0,0,1,0,0,0,0,1,18
1997,0,0,0,0,0,0,1,0,0,0,0,1,2
1998,0,0,0,0,0,0,1,0,0,0,0,1,2
1999,0,0,0,0,0,0,1,0,0,0,0,1,0
2000,0,0,0,-1,0,0,1,0,0,0,0,1,13
2001,0,0,0,0,0,0,1,0,0,0,0,1,5
2002,0,0,0,0,0,0,1,0,0,0,0,1,2
2003,0,0,0,-1,0,0,1,0,0,1,0,1,2
2004,0,0,0,0,0,0,1,0,0,0,0,1,43
2005,0,0,0,0,0,0,1,0,0,1,0,1,11
2006,0,0,0,0,0,0,1,0,0,0,0,1,2
2007,0,0,0,-1,0,0,1,0,0,1,0,1,47
2008,0,0,0,-1,0,0,1,0,0,0,0,1,18
2009,0,0,0,-1,0,0,1,0,0,0,0,1,47
2010,0,0,0,1,0,0,1,0,0,0,0,1,3
2011,0,0,0,-1,0,0,1,0,0,0,0,1,46
2012,0,0,0,0,0,0,1,0,0,0,0,1,2
2013,0,0,0,-1,0,0,1,0,0,1,0,1,47
2014,0,0,0,0,0,0,1,0,0,0,0,1,2
2015,0,0,0,-1,0,0,1,0,0,0,0,1,18
2016,0,0,0,-1,0,0,1,0,0,1,0,1,46
2017,0,0,0,-1,0,0,1,0,0,0,0,1,18
2018,0,0,0,-1,0,0,1,0,0,0,0,1,18
2019,0,0,0,-1,0,0,1,0,0,0,0,1,9
2020,0,0,0,0,0,0,1,0,0,0,0,1,2
2021,0,0,0,-1,0,0,1,0,0,0,0,1,60
2022,0,0,0,-1,0,0,1,0,0,1,0,1,26
2023,0,0,0,0,0,0,1,0,0,0,0,1,43
2024,0,0,0,-1,0,0,1,0,0,1,0,1,47
2025,0,0,0,-1,0,0,1,0,0,0,0,1,5
2026,0,0,0,-1,0,0,1,0,0,0,0,1,26
2027,0,0,0,-1,0,0,1,0,0,0,0,1,26
2028,0,0,0,0,0,0,1,0,0,0,0,1,2
2029,0,0,0,1,0,0,1,0,0,0,0,1,3
2030,0,0,0,-1,0,0,1,0,0,0,0,1,4
2031,0,0,0,0,0,0,1,0,0,0,0,1,12
2032,0,0,0,0,0,0,1,0,0,0,0,1,5
2033,0,0,0,0,0,0,1,0,0,1,0,1,6
2034,0,0,0,-1,0,0,1,0,0,0,0,1,47
2035,0,0,0,0,0,0,1,0,0,0,0,1,29
2036,0,0,0,0,0,0,1,0,0,0,0,1,29
2037,0,0,0,1,0,0,1,0,0,0,0,1,5
2038,0,0,0,0,0,0,1,0,0,0,0,1,3
2039,0,0,0,0,0,0,1,0,0,0,0,1,3
2040,0,0,0,0,0,0,1,0,0,0,0,1,5
2041,0,0,0,0,0,0,1,0,0,0,0,1,2
2042,0,0,0,0,0,0,1,0,0,0,0,1,3
2043,0,0,0,0,0,0,1,0,0,0,0,1,2
2044,0,0,0,-1,0,0,1,0,0,0,0,1,2
2045,0,0,0,-1,0,0,1,0,0,0,0,1,47
2046,0,0,0,0,0,0,1,0,0,0,0,1,2
2047,0,0,0,0,0,0,1,0,0,0,0,1,1
2048,0,0,0,0,0,0,1,0,0,0,0,1,2
2049,0,0,0,-1,0,0,1,0,0,0,0,1,47
2050,0,0,0,-1,0,0,1,0,0,1,0,1,2
2051,0,0,0,-1,0,0,1,0,0,0,0,1,8
2052,0,0,0,0,0,0,1,0,0,0,0,1,2
2053,0,0,0,0,0,0,1,0,0,0,0,1,29
2054,0,0,0,-1,0,0,1,0,0,0,0,1,2
2055,0,0,0,-1,0,0,1,0,0,0,0,1,26
2056,0,0,0,0,0,0,1,0,0,0,0,1,29
2057,0,0,0,0,0,0,1,0,0,0,0,1,29
2058,0,0,0,0,0,0,1,0,0,0,0,1,5
2059,0,0,0,-1,0,0,1,0,0,0,0,1,11
2060,0,0,0,0,0,0,1,0,0,0,0,1,2
2061,0,0,0,-1,0,0,1,0,0,0,0,1,6
2062,0,0,0,-1,0,0,1,0,0,0,0,1,13
2063,0,0,0,-1,0,0,1,0,0,0,0,1,26
2064,0,0,0,0,0,0,1,0,0,0,0,1,2
2065,0,0,0,-1,0,0,1,0,0,0,0,1,26
2066,0,0,0,0,0,0,1,0,0,0,0,1,2
2067,0,0,0,0,0,0,1,0,0,0,0,1,2
2068,0,0,0,-1,0,0,1,0,0,0,0,1,26
2069,0,0,0,-1,0,0,1,0,0,1,0,1,3
2070,0,0,0,0,0,0,1,0,0,0,0,1,2
2071,0,0,0,-1,0,0,1,0,0,0,0,1,47
2072,0,0,0,-1,0,0,1,0,0,0,0,1,26
2073,0,0,0,-1,0,0,1,0,0,0,0,1,13
2074,0,0,0,-1,0,0,1,0,0,0,0,1,14
2075,0,0,0,-1,0,0,1,0,0,0,0,1,2
2076,0,0,0,-1,0,0,1,0,0,0,0,1,26
2077,0,0,0,-1,0,0,1,0,0,0,0,1,47
2078,0,0,0,-1,0,0,1,0,0,0,0,1,14
2079,0,0,0,0,0,0,1,0,0,0,1,1,7
2080,0,0,0,0,0,0,1,0,0,0,0,1,2
2081,0,0,0,-1,0,0,1,0,0,1,0,1,5
2082,0,0,0,0,0,0,1,0,0,0,0,1,2
2083,0,0,0,-1,0,0,1,0,0,0,0,1,26
2084,0,0,0,0,0,0,1,0,0,0,0,1,2
2085,0,0,0,0,0,0,1,0,0,0,0,1,2
2086,0,0,0,0,0,0,1,0,0,0,0,1,2
2087,0,0,0,0,0,0,1,0,0,0,0,1,13
2088,0,0,0,0,0,0,1,0,0,0,0,1,2
2089,0,0,0,-1,0,0,1,0,0,0,0,1,8
2090,0,0,0,-1,0,0,1,0,0,0,0,1,3
2091,0,0,0,0,0,0,1,0,0,0,0,1,2
2092,0,0,0,0,0,0,1,0,0,0,0,1,3
2093,0,0,0,-1,0,0,1,0,0,1,0,1,3
2094,0,0,0,0,0,0,1,0,0,0,0,1,5
2095,0,0,0,0,0,0,1,0,0,0,0,1,2
2096,0,0,0,-1,0,0,1,0,0,0,0,1,7
2097,0,0,0,0,0,0,1,0,0,0,0,1,2
2098,0,0,0,-1,0,0,1,0,0,1,0,1,1
2099,0,0,0,-1,0,0,1,0,0,0,0,1,1
2100,0,0,0,-1,0,0,1,0,0,0,0,1,1
2101,0,0,0,0,0,0,1,0,0,0,0,1,2
2102,0,0,0,-1,0,0,1,0,0,1,0,1,21
2103,0,0,0,0,0,0,1,0,0,0,0,1,2
2104,0,0,0,-1,0,0,1,0,0,0,0,1,8
2105,0,0,0,-1,0,0,1,0,0,0,0,1,1
2106,0,0,0,-1,0,0,1,0,0,1,0,1,18
2107,0,0,0,-1,0,0,1,0,0,1,0,1,18
2108,0,0,0,0,0,0,1,0,0,0,0,1,2
2109,0,0,0,-1,0,0,1,0,0,0,0,1,2
2110,0,0,0,0,0,0,1,0,0,0,0,1,2
2111,0,0,0,0,0,0,1,0,0,0,0,1,5
2112,0,0,0,-1,0,0,1,0,0,0,0,1,3
2113,0,0,0,0,0,0,1,0,0,0,0,1,29
2114,0,0,0,-1,0,0,1,0,0,0,0,1,46
2115,0,0,0,0,0,0,1,0,0,0,0,1,13
2116,0,0,0,0,0,0,1,0,0,0,0,1,2
2117,0,0,0,0,0,0,1,0,0,0,0,1,2
2118,0,0,0,-1,0,0,1,0,0,1,0,1,1
2119,0,0,0,0,0,0,1,0,0,0,0,1,2
2120,0,0,0,0,0,0,1,0,0,0,0,1,2
2121,0,0,0,-1,0,0,1,0,0,1,0,1,21
2122,0,0,0,-1,0,0,1,0,0,0,0,1,1
2123,0,0,0,0,0,0,1,0,0,0,0,1,15
2124,0,0,0,-1,0,0,1,0,0,0,0,1,11
2125,0,0,0,0,0,0,1,0,0,0,0,1,2
2126,0,0,0,0,0,0,1,0,0,0,0,1,29
2127,0,0,0,-1,0,0,1,0,0,0,0,1,47
2128,0,0,0,0,0,0,1,0,0,0,0,1,2
2129,0,0,0,0,0,0,1,0,0,0,0,1,2
2130,0,0,0,-1,0,0,1,0,0,0,0,1,44
2131,0,0,0,-1,0,0,1,0,0,0,0,1,3
2132,0,0,0,0,0,0,1,0,0,0,0,1,2
2133,0,0,0,-1,0,0,1,0,0,1,0,1,2
2134,0,0,0,-1,0,0,1,0,0,0,0,1,27
2135,0,0,0,0,0,0,1,0,0,0,0,1,5
2136,0,0,0,-1,0,0,1,0,0,0,0,1,27
2137,0,0,0,0,0,0,1,0,0,0,0,1,5
2138,0,0,0,-1,0,0,1,0,0,0,0,1,20
2139,0,0,0,-1,0,0,1,0,0,0,0,1,20
2140,0,0,0,0,0,0,1,0,0,0,0,1,2
2141,0,0,0,0,0,0,1,0,0,0,0,1,5
2142,0,0,0,0,0,0,1,0,0,0,0,1,2
2143,0,0,0,-1,0,0,1,0,0,0,0,1,5
2144,0,0,0,0,0,0,1,0,0,0,0,1,2
2145,0,0,0,-1,0,0,1,0,0,0,0,1,1
2146,0,0,0,0,0,0,1,0,0,0,0,1,2
2147,0,0,0,0,0,0,1,0,0,0,0,1,2
2148,0,0,0,0,0,0,1,0,0,0,0,1,2
2149,0,0,0,0,0,0,1,0,0,0,0,1,2
2150,0,0,0,0,0,0,1,0,0,0,0,1,3
2151,0,0,0,0,0,0,1,0,0,0,0,1,2
2152,0,0,0,0,0,0,1,0,0,0,0,1,2
2153,0,0,0,0,0,0,1,0,0,0,0,1,2
2154,0,0,0,-1,0,0,1,0,0,0,0,1,5
2155,0,0,0,-1,0,0,1,0,0,0,0,1,44
2156,0,0,0,-1,0,0,1,0,0,0,0,1,5
2157,0,0,0,-1,0,0,1,0,0,0,0,1,2
2158,0,0,0,0,0,0,1,0,0,0,0,1,2
2159,0,0,0,-1,0,0,1,0,0,0,0,1,2
2160,0,0,0,-1,0,0,1,0,0,0,0,1,20
2161,0,0,0,0,0,0,0,0,0,0,0,1,0
2162,0,1,0,0,0,0,0,0,0,0,0,1,0
2163,0,1,0,0,0,0,0,0,0,0,0,1,0
2164,0,0,0,-1,0,0,1,0,0,0,0,1,3
2165,0,0,0,-1,0,0,1,0,0,0,0,1,51
2166,0,0,0,0,0,0,1,0,0,0,0,1,2
2167,0,0,0,0,0,0,1,0,0,0,0,1,2
2168,0,0,0,0,0,0,1,0,0,0,0,1,2
2169,0,0,0,0,0,0,1,0,0,1,0,1,21
2170,0,0,0,-1,0,0,1,0,0,0,0,1,2
2171,0,0,0,0,0,0,1,0,0,0,0,1,2
2172,0,0,0,0,0,0,1,0,0,0,0,1,2
2173,0,0,0,-1,0,0,1,0,0,1,0,1,1
2174,0,0,0,0,0,0,1,0,0,0,0,1,2
2175,0,0,0,-1,0,0,1,0,0,1,0,1,3
2176,0,0,0,0,0,0,1,0,0,1,0,1,16
2177,0,0,0,-1,0,0,1,0,0,0,0,1,51
2178,0,0,0,0,0,0,1,0,0,1,0,1,16
2179,0,0,0,-1,0,0,1,0,0,0,0,1,4
2180,0,0,0,-1,0,0,1,0,0,1,0,1,55
2181,0,0,0,0,0,0,1,0,0,0,0,1,3
2182,0,0,0,-1,0,0,1,0,0,0,0,1,1
2183,0,0,0,0,0,0,1,0,0,0,0,1,3
2184,0,0,0,-1,0,0,1,0,0,0,0,1,8
2185,0,0,0,0,0,0,1,0,0,0,0,1,3
2186,0,0,0,-1,0,0,1,0,0,1,0,1,2
2187,0,0,0,0,0,0,1,0,0,0,0,1,2
2188,0,0,0,0,0,0,1,0,0,0,0,1,2
2189,0,0,0,0,0,0,1,0,0,0,0,1,2
2190,0,0,0,-1,0,0,1,0,0,1,0,1,28
2191,0,0,0,0,0,0,1,0,0,0,0,1,2
2192,0,0,0,0,0,0,1,0,0,0,0,1,5
2193,0,0,0,0,0,0,1,0,0,0,0,1,2
2194,0,0,0,0,0,0,1,0,0,0,0,1,3
2195,0,0,0,-1,0,0,1,0,0,0,0,1,51
2196,0,0,0,0,0,0,1,0,0,0,0,1,2
2197,0,0,4,-1,4,0,1,0,0,0,1,1,13
2198,0,0,0,-1,0,0,1,0,0,0,0,1,2
2199,0,0,0,0,0,0,1,0,0,0,0,1,1
2200,0,0,0,0,0,0,1,0,0,0,0,1,2
2201,0,0,0,0,0,0,1,0,0,0,0,1,29
2202,0,0,0,0,0,0,1,0,0,0,0,1,2
2203,0,0,0,0,0,0,1,0,0,1,0,1,13
2204,0,0,0,0,0,0,1,0,0,0,0,1,9
2205,0,0,0,-1,0,0,1,0,0,0,0,1,4
2206,0,0,0,-1,0,0,1,0,0,0,0,1,46
2207,0,0,0,-1,0,0,1,0,0,0,0,1,4
2208,0,0,0,0,0,0,1,0,0,0,0,1,2
2209,0,0,0,1,0,0,1,0,0,0,0,1,5
2210,0,0,0,-1,0,0,1,0,0,0,0,1,47
2211,0,0,0,0,0,0,1,0,0,0,0,1,2
2212,0,0,0,0,0,0,1,0,0,0,0,1,23
2213,0,0,0,-1,0,0,1,0,0,1,0,1,2
2214,0,0,0,0,0,0,1,0,0,0,0,1,2
2215,0,0,0,0,0,0,1,0,0,0,0,1,2
2216,0,0,0,0,0,0,1,0,0,0,0,1,2
2217,0,0,0,0,0,0,1,0,0,0,0,1,2
2218,0,0,0,0,0,0,1,0,0,0,0,1,5
2219,0,0,0,0,0,0,1,0,0,0,0,1,2
2220,0,0,0,0,0,0,1,0,0,0,0,1,2
2221,0,0,0,-1,0,0,1,0,0,0,0,1,2
2222,0,0,0,-1,0,0,0,0,0,0,0,1,1
2223,0,0,0,-1,0,0,1,0,0,0,0,1,2
2224,0,0,0,0,0,0,1,0,0,0,0,1,2
2225,0,0,0,1,0,0,1,0,0,0,0,1,3
2226,0,0,0,1,0,0,1,0,0,0,0,1,3
2227,0,0,0,-1,0,0,1,0,0,0,0,1,2
2228,0,0,0,0,0,0,1,0,0,0,0,1,1
2229,0,0,0,-1,0,0,1,0,0,0,0,1,2
2230,0,0,0,0,0,0,1,0,0,0,0,1,2
2231,0,0,0,0,0,0,1,0,0,1,0,1,3
2232,0,0,0,0,0,0,1,0,0,0,0,1,2
2233,0,0,0,-1,0,0,1,0,0,0,0,1,28
2234,0,0,0,-1,0,0,1,0,0,0,0,1,28
2235,0,0,0,-1,0,0,1,0,0,0,0,1,15
2236,0,0,0,0,0,0,1,0,0,0,0,1,2
2237,0,0,0,-1,0,0,1,0,0,0,0,1,2
2238,0,0,0,0,0,0,1,0,0,0,0,1,2
2239,0,0,0,0,0,0,1,0,0,0,0,1,2
2240,0,0,0,0,0,0,1,0,0,0,0,1,2
2241,0,0,2,2,0,0,1,0,0,0,11,1,31
2242,0,0,0,0,0,0,1,0,0,0,0,1,2
2243,0,0,0,0,0,0,1,0,0,0,0,1,2
2244,0,0,0,-1,0,0,1,0,0,0,0,1,20
2245,0,0,0,0,0,0,1,0,0,0,0,1,2
2246,0,0,0,-1,0,0,1,0,0,0,0,1,20
2247,0,0,0,-1,0,0,1,0,0,0,0,1,8
2248,0,0,0,-1,0,0,1,0,0,0,0,1,20
2249,0,0,0,0,0,0,1,0,0,0,0,1,2
2250,0,0,0,-1,0,0,1,0,0,0,0,1,2
2251,0,0,0,-1,0,0,1,0,0,0,0,1,2
2252,0,0,2,2,0,0,1,0,0,0,11,1,32
2253,0,0,0,0,0,0,1,0,0,0,0,1,2
2254,0,0,0,-1,0,0,1,0,0,0,0,1,2
2255,0,0,0,-1,0,0,1,0,0,0,0,1,20
